<?xml version="1.0" encoding="UTF-8" standalone="no"?>
<!-- Created with Inkscape (http://www.inkscape.org/) -->

<svg
   width="1920"
   height="1080"
   viewBox="0 0 507.99998 285.75"
   version="1.1"
   id="svg1384"
   sodipodi:docname="artixbg.svg"
   inkscape:version="1.2.2 (b0a8486541, 2022-12-01)"
   xml:space="preserve"
   xmlns:inkscape="http://www.inkscape.org/namespaces/inkscape"
   xmlns:sodipodi="http://sodipodi.sourceforge.net/DTD/sodipodi-0.dtd"
   xmlns:xlink="http://www.w3.org/1999/xlink"
   xmlns="http://www.w3.org/2000/svg"
   xmlns:svg="http://www.w3.org/2000/svg"><sodipodi:namedview
     id="namedview1386"
     pagecolor="#ffffff"
     bordercolor="#666666"
     borderopacity="0"
     inkscape:showpageshadow="2"
     inkscape:pageopacity="0.0"
     inkscape:pagecheckerboard="0"
     inkscape:deskcolor="#000000"
     inkscape:document-units="mm"
     showgrid="false"
     inkscape:zoom="0.42222964"
     inkscape:cx="427.49249"
     inkscape:cy="328.02055"
     inkscape:window-width="1920"
     inkscape:window-height="1080"
     inkscape:window-x="-1"
     inkscape:window-y="-1"
     inkscape:window-maximized="1"
     inkscape:current-layer="layer1" /><defs
     id="defs1381"><linearGradient
       inkscape:collect="always"
       id="linearGradient1627"><stop
         style="stop-color:#00f6ff;stop-opacity:1"
         offset="0"
         id="stop1623" /><stop
         style="stop-color:#9a00ff;stop-opacity:1;"
         offset="1"
         id="stop1625" /></linearGradient><inkscape:path-effect
       effect="fillet_chamfer"
       id="path-effect1539"
       is_visible="true"
       lpeversion="1"
       nodesatellites_param="C,0,0,1,0,2.6458333,0,20 @ C,0,0,1,0,2.6458333,0,20 @ C,0,0,1,0,2.6458333,0,20 | C,0,0,1,0,2.6458333,0,20 @ C,0,0,1,0,2.6458333,0,20 @ C,0,0,1,0,2.6458333,0,20 | C,0,0,1,0,2.6458333,0,20 @ C,0,0,1,0,2.6458333,0,20 @ C,0,0,1,0,2.6458333,0,20"
       unit="px"
       method="auto"
       mode="F"
       radius="10"
       chamfer_steps="20"
       flexible="false"
       use_knot_distance="true"
       apply_no_radius="true"
       apply_with_radius="true"
       only_selected="false"
       hide_knots="false" /><radialGradient
       inkscape:collect="always"
       xlink:href="#linearGradient1627"
       id="radialGradient1091"
       cx="253.99998"
       cy="142.875"
       fx="253.99998"
       fy="142.875"
       r="61.201046"
       gradientTransform="matrix(1,0,0,1.0251707,0,-3.5962589)"
       gradientUnits="userSpaceOnUse"
       spreadMethod="pad" /><linearGradient
       inkscape:collect="always"
       id="linearGradient1337"><stop
         style="stop-color:#00f6ff;stop-opacity:1"
         offset="0"
         id="stop1335" /><stop
         style="stop-color:#9a00ff;stop-opacity:1"
         offset="1"
         id="stop1333" /></linearGradient><radialGradient
       inkscape:collect="always"
       xlink:href="#linearGradient1337"
       id="radialGradient1091-6"
       cx="253.99998"
       cy="142.875"
       fx="253.99998"
       fy="142.875"
       r="61.201046"
       gradientTransform="matrix(0.08589935,0,-0.00923021,0.08806149,50.373753,15.75076)"
       gradientUnits="userSpaceOnUse"
       spreadMethod="pad" /><linearGradient
       inkscape:collect="always"
       id="linearGradient11610"><stop
         style="stop-color:#ffffff;stop-opacity:1;"
         offset="0"
         id="stop11608" /><stop
         style="stop-color:#615790;stop-opacity:1;"
         offset="0.58218759"
         id="stop11616" /><stop
         style="stop-color:#140066;stop-opacity:0.60239422;"
         offset="1"
         id="stop11606" /></linearGradient><linearGradient
       inkscape:collect="always"
       id="linearGradient1068"><stop
         style="stop-color:#7a00ff;stop-opacity:1;"
         offset="0"
         id="stop1064" /><stop
         style="stop-color:#00ffeb;stop-opacity:1;"
         offset="1"
         id="stop1066" /></linearGradient><inkscape:perspective
       sodipodi:type="inkscape:persp3d"
       inkscape:vp_x="-413.01606 : 1050.3167 : 1"
       inkscape:vp_y="0 : 999.99999 : 0"
       inkscape:vp_z="1480.5665 : 1031.3181 : 1"
       inkscape:persp3d-origin="496.68746 : 977.48139 : 1"
       id="perspective3417" /><clipPath
       clipPathUnits="userSpaceOnUse"
       id="clipPath1730"><rect
         style="fill:#ff0000;fill-opacity:0.438789;stroke:none;stroke-width:0.333;stroke-linecap:round;stroke-linejoin:round;paint-order:markers stroke fill"
         id="rect1732"
         width="1076.4478"
         height="801.01532"
         x="143.76959"
         y="222.74092" /></clipPath><clipPath
       clipPathUnits="userSpaceOnUse"
       id="clipPath1730-3"><rect
         style="fill:#ff0000;fill-opacity:0.438789;stroke:none;stroke-width:0.333;stroke-linecap:round;stroke-linejoin:round;paint-order:markers stroke fill"
         id="rect1732-6"
         width="1076.4478"
         height="801.01532"
         x="143.76959"
         y="222.74092" /></clipPath><linearGradient
       inkscape:collect="always"
       xlink:href="#linearGradient1068"
       id="linearGradient1072"
       x1="169.91174"
       y1="720.12848"
       x2="1163.2866"
       y2="720.12848"
       gradientUnits="userSpaceOnUse"
       gradientTransform="translate(-82.391195,-135.92049)" /><filter
       inkscape:collect="always"
       style="color-interpolation-filters:sRGB"
       id="filter1082"
       x="-0.083112484"
       y="-0.083112484"
       width="1.166225"
       height="1.166225"><feGaussianBlur
         inkscape:collect="always"
         stdDeviation="19.175298"
         id="feGaussianBlur1084" /></filter><filter
       inkscape:collect="always"
       style="color-interpolation-filters:sRGB"
       id="filter1086"
       x="-0.021043233"
       y="-0.021043233"
       width="1.0420865"
       height="1.0420865"><feGaussianBlur
         inkscape:collect="always"
         stdDeviation="2.7140078"
         id="feGaussianBlur1088" /></filter><filter
       inkscape:collect="always"
       style="color-interpolation-filters:sRGB"
       id="filter1096"
       x="-0.15929088"
       y="-0.15929088"
       width="1.3185818"
       height="1.3185818"><feGaussianBlur
         inkscape:collect="always"
         stdDeviation="43.867444"
         id="feGaussianBlur1098" /></filter><linearGradient
       inkscape:collect="always"
       xlink:href="#linearGradient1068"
       id="linearGradient1103"
       gradientUnits="userSpaceOnUse"
       gradientTransform="translate(-82.391111,-135.92049)"
       x1="169.91174"
       y1="720.12848"
       x2="1163.2866"
       y2="720.12848" /><filter
       inkscape:collect="always"
       style="color-interpolation-filters:sRGB"
       id="filter1107"
       x="-0.34103271"
       y="-0.34103271"
       width="1.6820654"
       height="1.6820654"><feGaussianBlur
         inkscape:collect="always"
         stdDeviation="121.85401"
         id="feGaussianBlur1105" /></filter><radialGradient
       inkscape:collect="always"
       xlink:href="#linearGradient11610"
       id="radialGradient11612"
       cx="-1042.9365"
       cy="235.2828"
       fx="-1042.9365"
       fy="235.2828"
       r="176.97982"
       gradientTransform="matrix(1,0,0,0.9962079,0,0.89221679)"
       gradientUnits="userSpaceOnUse" /><radialGradient
       inkscape:collect="always"
       xlink:href="#linearGradient11610"
       id="radialGradient1020"
       gradientUnits="userSpaceOnUse"
       gradientTransform="matrix(1,0,0,0.9962079,0,0.89221679)"
       cx="-1042.9365"
       cy="235.2828"
       fx="-1042.9365"
       fy="235.2828"
       r="176.97982" /><radialGradient
       inkscape:collect="always"
       xlink:href="#linearGradient11610"
       id="radialGradient1022"
       gradientUnits="userSpaceOnUse"
       gradientTransform="matrix(1,0,0,0.9962079,0,0.89221679)"
       cx="-1042.9365"
       cy="235.2828"
       fx="-1042.9365"
       fy="235.2828"
       r="176.97982" /><radialGradient
       inkscape:collect="always"
       xlink:href="#linearGradient11610"
       id="radialGradient1024"
       gradientUnits="userSpaceOnUse"
       gradientTransform="matrix(1,0,0,0.9962079,0,0.89221679)"
       cx="-1042.9365"
       cy="235.2828"
       fx="-1042.9365"
       fy="235.2828"
       r="176.97982" /><radialGradient
       inkscape:collect="always"
       xlink:href="#linearGradient11610"
       id="radialGradient1026"
       gradientUnits="userSpaceOnUse"
       gradientTransform="matrix(1,0,0,0.9962079,0,0.89221679)"
       cx="-1042.9365"
       cy="235.2828"
       fx="-1042.9365"
       fy="235.2828"
       r="176.97982" /><radialGradient
       inkscape:collect="always"
       xlink:href="#linearGradient11610"
       id="radialGradient1028"
       gradientUnits="userSpaceOnUse"
       gradientTransform="matrix(1,0,0,0.9962079,0,0.89221679)"
       cx="-1042.9365"
       cy="235.2828"
       fx="-1042.9365"
       fy="235.2828"
       r="176.97982" /><radialGradient
       inkscape:collect="always"
       xlink:href="#linearGradient11610"
       id="radialGradient1030"
       gradientUnits="userSpaceOnUse"
       gradientTransform="matrix(1,0,0,0.9962079,0,0.89221679)"
       cx="-1042.9365"
       cy="235.2828"
       fx="-1042.9365"
       fy="235.2828"
       r="176.97982" /></defs><g
     inkscape:label="bg"
     inkscape:groupmode="layer"
     id="layer1"><rect
       style="opacity:1;fill:#1e1e2d;stroke-width:0.26458333;fill-opacity:1;stroke-dasharray:none"
       id="rect1626"
       width="508"
       height="285.75"
       x="0"
       y="-4.4408921e-16" /></g><g
     inkscape:groupmode="layer"
     id="layer2"
     inkscape:label="logo"><g
       inkscape:groupmode="layer"
       id="layer2-3"
       inkscape:label="artix"
       style="display:inline"
       transform="matrix(0.512,0,0,0.512,123.952,69.723003)"><path
         style="font-style:normal;font-variant:normal;font-weight:normal;font-stretch:normal;font-size:17.6389px;line-height:1.25;font-family:'Bai Jamjuree';-inkscape-font-specification:'Bai Jamjuree';text-align:center;letter-spacing:0px;word-spacing:0px;text-anchor:middle;display:inline;mix-blend-mode:normal;fill:url(#radialGradient1091);fill-opacity:1;stroke:none;stroke-width:2.06705729;stroke-miterlimit:4;stroke-dasharray:none;stroke-opacity:1;stroke-linejoin:round;stroke-linecap:round;paint-order:markers stroke fill"
         d="m 252.83949,82.511559 -19.2578,39.485361 -0.0856,0.19389 -0.0707,0.19981 -0.0554,0.20459 -0.0398,0.20819 -0.0239,0.2106 -0.008,0.21181 0.008,0.21181 0.0241,0.21059 0.04,0.20816 0.0556,0.20454 0.0709,0.19976 0.0858,0.19382 0.1002,0.18678 0.11404,0.17867 0.12722,0.16954 0.13968,0.15942 0.15134,0.14841 0.16212,0.13654 0.17198,0.12389 0.18087,0.11053 54.76733,30.68584 0.0945,0.0454 0.0995,0.033 0.10287,0.0202 0.1046,0.007 0.10466,-0.006 0.10302,-0.0194 0.0997,-0.0323 0.0949,-0.0447 0.0884,-0.0563 0.0806,-0.067 0.0715,-0.0767 0.0612,-0.0851 0.05,-0.0922 0.0379,-0.0977 0.0253,-0.10175 0.0122,-0.10413 -0.001,-0.10483 -0.0143,-0.10386 -0.0273,-0.10122 -0.0399,-0.0969 -35.48659,-72.757786 -0.0703,-0.125761 -0.0839,-0.117143 -0.0964,-0.107065 -0.10774,-0.09565 -0.11772,-0.08305 -0.12625,-0.06941 -0.1332,-0.0549 -0.13849,-0.03971 -0.14205,-0.02403 -0.14385,-0.008 -0.14384,0.008 -0.14206,0.02403 -0.13849,0.03971 -0.13319,0.0549 -0.12625,0.06941 -0.11773,0.08305 -0.10773,0.09565 -0.0964,0.107066 -0.0839,0.117144 z m -28.09593,57.607361 -30.78477,63.11953 -0.0465,0.11195 -0.0326,0.11673 -0.0183,0.11981 -0.004,0.12115 0.0109,0.12072 0.0254,0.11852 0.0395,0.11461 0.053,0.10901 0.0657,0.10184 0.0775,0.0932 0.0882,0.0831 0.0976,0.0719 0.10552,0.0596 0.11194,0.0465 0.11673,0.0326 0.11981,0.0183 0.12114,0.004 0.12072,-0.0109 0.11853,-0.0253 0.11461,-0.0394 93.34156,-38.56276 0.11652,-0.0564 0.10911,-0.0697 0.10017,-0.082 0.0899,-0.0932 0.0783,-0.10308 0.0657,-0.11156 0.0521,-0.1185 0.0378,-0.12379 0.0231,-0.12738 0.008,-0.1292 -0.007,-0.12925 -0.0224,-0.12749 -0.0372,-0.12398 -0.0515,-0.11876 -0.0651,-0.11189 -0.0778,-0.10348 -0.0894,-0.0936 -0.0998,-0.0825 -0.10875,-0.0702 -0.11624,-0.057 -60.24737,-25.24717 -0.19845,-0.0745 -0.20351,-0.0592 -0.20741,-0.0437 -0.21012,-0.0279 -0.21163,-0.0119 -0.21192,0.004 -0.211,0.0201 -0.20888,0.0361 -0.20555,0.0517 -0.20105,0.0671 -0.1954,0.0821 -0.18863,0.0967 -0.18077,0.11067 -0.1719,0.12402 -0.16202,0.13666 -0.15122,0.14853 -0.13955,0.15953 -0.1271,0.16963 -0.1139,0.17876 z m 71.25679,32.15194 -26.39192,15.15136 -0.11586,0.0756 -0.10651,0.0883 -0.0958,0.0999 -0.0838,0.11011 -0.0707,0.11893 -0.0567,0.12621 -0.042,0.13183 -0.0267,0.13576 -0.0111,0.13791 0.005,0.13827 0.0204,0.13683 0.0359,0.13362 0.0509,0.12867 0.0652,0.12205 0.0786,0.11383 0.0911,0.10414 0.10235,0.0931 0.11227,0.0808 0.12075,0.0675 0.12765,0.0533 42.89642,15.11808 0.12313,0.0354 0.12644,0.0206 0.12799,0.006 0.12776,-0.01 0.12573,-0.0246 0.12197,-0.0392 0.11649,-0.0533 0.10939,-0.0667 0.10076,-0.0791 0.0907,-0.0904 0.0794,-0.10051 0.067,-0.10918 0.0537,-0.11631 0.0396,-0.12184 0.025,-0.12565 0.01,-0.12773 -0.005,-0.12801 -0.0202,-0.12651 -0.035,-0.12324 -0.0493,-0.11826 -14.5864,-29.90684 -0.0962,-0.17824 -0.11042,-0.16978 -0.12395,-0.16018 -0.13663,-0.1495 -0.14841,-0.13782 -0.15918,-0.12521 -0.16889,-0.11177 -0.17748,-0.0976 -0.18486,-0.0827 -0.19101,-0.0673 -0.19588,-0.0515 -0.19943,-0.0353 -0.20166,-0.0188 -0.20251,-0.002 -0.20203,0.0143 -0.20017,0.0308 -0.19699,0.0471 -0.19248,0.063 -0.18668,0.0786 z"
         id="path4885-0"
         inkscape:connector-curvature="0"
         sodipodi:nodetypes="cccccccccccc"
         inkscape:path-effect="#path-effect1539"
         inkscape:original-d="m 253.99932,80.133488 -21.57746,44.241502 59.38377,33.2724 z m -28.09592,57.607362 -33.10445,67.87567 98.23228,-40.5833 z m 72.39154,33.21271 -30.9811,17.78596 47.8872,16.877 z" /></g></g><g
     inkscape:groupmode="layer"
     id="layer3"
     inkscape:label="gtfo"><g
       inkscape:groupmode="layer"
       id="layer1-3"
       inkscape:label="git"
       style="display:inline"
       transform="matrix(0.9,0,0,0.9,4.0003822,12.360659)"><g
         id="g2858"
         inkscape:label="push"
         style="fill:#cdcecf;fill-opacity:1"><path
           d="m 38.900846,93.111992 c -1.755648,0.195072 -3.641344,1.267968 -4.746752,2.731008 -1.007872,1.316736 -1.332992,2.340864 -1.332992,4.22656 -0.01626,1.49555 0.01626,1.70688 0.503936,2.73101 2.129536,4.48665 7.786624,5.55955 11.232896,2.11328 3.153664,-3.13741 2.535936,-8.388098 -1.251712,-10.810242 -1.154176,-0.73152 -3.00736,-1.154176 -4.405376,-0.991616 z"
           id="path14366"
           style="fill:#3e7475;fill-opacity:1;stroke:none;stroke-width:0.016256" /><path
           d="m 30.35019,105.84044 c -1.901952,0.39014 -3.917696,2.04826 -4.941824,4.11277 -0.357632,0.71526 -0.617728,1.33299 -0.585216,1.3655 0.03251,0.0488 0.520192,-0.22758 1.072896,-0.60147 0.552704,-0.37389 1.755648,-1.04038 2.649728,-1.4793 1.804416,-0.86156 2.8448,-1.02412 3.90144,-0.56896 0.715264,0.29261 1.528064,1.25172 1.739392,2.06452 0.455168,1.69062 -0.471424,3.18617 -2.422144,3.9502 -1.202944,0.47143 -2.861056,1.51181 -4.275328,2.6985 -1.755648,1.46304 -2.796032,2.68224 -4.096512,4.86054 l -0.633984,1.04039 0.09754,2.29209 c 0.16256,3.56007 0.764032,5.33197 2.259584,6.66496 0.438912,0.4064 1.170432,0.87783 1.593088,1.02413 l 0.780288,0.27635 0.422656,1.70688 c 1.007872,4.22656 1.316736,7.03885 1.186688,11.46048 -0.113792,4.37287 -0.520192,6.7625 -1.853184,11.05408 -0.73152,2.34087 -0.747776,2.45466 -0.56896,3.33248 0.536448,2.5522 3.202432,3.83642 5.543296,2.68224 1.154176,-0.58521 1.641856,-1.3655 2.535936,-4.16153 2.584704,-8.01421 2.877312,-17.50771 0.796544,-25.70074 -0.227584,-0.89408 -0.390144,-1.6256 -0.357632,-1.65811 0.03251,-0.0163 2.129536,-0.58522 4.681728,-1.26797 l 4.63296,-1.23545 7.250176,4.12902 c 3.998976,2.27584 7.526528,4.25907 7.851648,4.38912 1.235456,0.52019 3.202432,0.0813 4.112768,-0.91034 1.398016,-1.52806 1.332992,-4.08025 -0.130048,-5.44576 -0.308864,-0.27635 -4.30784,-2.64972 -8.892032,-5.2832 -7.819136,-4.45414 -8.420608,-4.763 -9.26592,-4.82803 -0.780288,-0.0488 -1.771904,0.16256 -6.112256,1.33299 -2.8448,0.76404 -5.20192,1.39802 -5.250688,1.39802 -0.260096,0 0.585216,-5.90093 1.414272,-9.83488 0.56896,-2.68224 0.65024,-3.49504 0.471424,-4.6167 -0.24384,-1.52807 -0.73152,-2.51968 -1.641856,-3.34874 -1.072896,-0.9591 -2.259584,-1.2192 -3.966464,-0.89408 z"
           id="path14368"
           style="fill:#3e7475;fill-opacity:1;stroke:none;stroke-width:0.016256" /><path
           d="m 29.960046,109.31922 c -2.584704,0.95911 -6.58368,3.78765 -8.566912,6.07975 -2.064512,2.37337 -3.755136,5.23443 -4.746752,8.06297 -1.007872,2.87732 -1.723136,7.70535 -1.332992,8.92455 0.536448,1.60934 2.714752,2.14579 3.950208,0.97536 0.65024,-0.61773 0.764032,-0.95911 0.959104,-2.95859 0.666496,-7.39648 4.730496,-13.32992 11.086592,-16.27226 1.885696,-0.86157 2.535936,-1.80442 2.227072,-3.16992 -0.341376,-1.49555 -1.95072,-2.24333 -3.57632,-1.64186 z"
           id="path14370"
           style="fill:#3e7475;fill-opacity:1;stroke:none;stroke-width:0.016256" /><path
           d="m 91.895406,120.06444 c 0,0.84531 -0.06502,1.25171 -0.195072,1.30048 -0.113792,0.0325 -5.006848,0.29261 -10.859008,0.5527 -5.85216,0.27636 -11.13536,0.55271 -11.736832,0.60148 -1.089152,0.0975 -1.105408,0.0975 -1.105408,0.56896 0,0.26009 0.01626,0.47142 0.04877,0.48768 0.01626,0.0162 5.380736,0.27635 11.899392,0.60147 l 11.86688,0.60147 0.08128,1.26797 0.08128,1.28422 2.8448,-2.04825 c 1.560576,-1.13792 2.8448,-2.11328 2.8448,-2.19456 0,-0.1138 -4.71424,-3.60884 -5.60832,-4.16154 -0.09754,-0.065 -0.16256,0.37389 -0.16256,1.13792 z"
           id="path14372"
           style="fill:#97999b;fill-opacity:1;stroke:none;stroke-width:0.016256" /><path
           d="m 66.048366,148.18732 v 16.17472 h 16.17472 16.17472 V 148.18732 132.0126 h -16.17472 -16.17472 z"
           id="path14374"
           style="fill:#646468;fill-opacity:1;stroke:none;stroke-width:0.016256" /><path
           style="fill:#63cdcf;fill-opacity:1;stroke-width:0.464231;stroke-linecap:round;stroke-linejoin:round;paint-order:markers stroke fill"
           d="m 114.04786,603.65618 c -4.65448,-1.92057 -7.80474,-7.66938 -7.07,-12.90182 0.3507,-2.4975 2.11797,-9.87329 3.92727,-16.39064 6.58784,-23.73037 3.47664,-72.07516 -4.84189,-75.23786 -4.57976,-1.74122 -10.351509,-9.18783 -11.140487,-14.37325 -2.600703,-17.09268 -2.484342,-17.91982 3.756214,-26.70066 5.436073,-7.64889 11.676113,-12.69361 27.730933,-22.41891 3.89458,-2.35916 4.70207,-3.73765 5.05919,-8.63662 0.83021,-11.3888 -8.66154,-14.84935 -22.07963,-8.04988 -7.79886,3.95198 -8.6692,2.96142 -3.15544,-3.5913 6.876,-8.17167 17.97843,-10.6185 24.58852,-5.419 6.23321,4.90304 7.1458,11.99126 3.83176,29.76208 -4.48646,24.05766 -5.18221,32.13706 -2.68492,31.17876 1.13355,-0.43498 10.22225,-2.86211 20.19711,-5.39362 l 18.13611,-4.60273 14.5259,8.15317 c 34.60438,19.42292 47.50815,27.66129 48.84876,31.18734 2.89805,7.62249 -3.14696,16.98492 -10.96661,16.98492 -1.89884,0 -15.14519,-6.6676 -29.43634,-14.8169 l -25.98391,-14.81691 -16.03199,4.05814 c -18.52828,4.69001 -17.13763,2.01031 -13.27268,25.57567 3.15886,19.26023 2.16882,42.76478 -2.59126,61.51943 -3.48931,13.74779 -6.24128,20.46126 -9.49402,23.1608 -2.81144,2.33328 -8.44747,3.17484 -11.85259,1.76979 z"
           id="path1333"
           transform="matrix(0.29398148,0,0,0.29398148,-4.4448691,-13.734066)" /><path
           style="fill:#63cdcf;fill-opacity:1;stroke-width:0.464231;stroke-linecap:round;stroke-linejoin:round;paint-order:markers stroke fill"
           d="m 69.920401,499.32179 c -1.339714,-1.48037 -2.307196,-4.89438 -2.307196,-8.14152 0,-8.47668 4.958376,-26.08798 10.065685,-35.7516 8.982818,-16.99652 35.93589,-38.90532 45.049,-36.61808 4.03899,1.01372 6.70396,5.46917 5.51395,9.21855 -0.4761,1.50006 -5.33222,5.336 -10.79137,8.52432 -5.45916,3.18832 -12.62062,8.56977 -15.91435,11.95877 -8.3043,8.5445 -15.317327,23.53178 -17.763802,37.96238 -2.016387,11.89371 -4.11837,15.3966 -9.239065,15.3966 -1.268111,0 -3.343895,-1.14724 -4.612852,-2.54942 z"
           id="path1335"
           transform="matrix(0.29398148,0,0,0.29398148,-4.4448691,-13.734066)" /><path
           style="fill:#63cdcf;fill-opacity:1;stroke-width:0.464231;stroke-linecap:round;stroke-linejoin:round;paint-order:markers stroke fill"
           d="m 139.75377,406.97664 c -2.87719,-1.51889 -6.87637,-5.24757 -8.88708,-8.28595 -3.1012,-4.68623 -3.56193,-6.65666 -3.03689,-12.98799 0.78382,-9.45173 5.10525,-15.72126 13.35012,-19.36837 15.02479,-6.64617 31.22213,4.00159 31.22213,20.52473 0,17.27773 -17.54668,28.08985 -32.64828,20.11758 z"
           id="path1337"
           transform="matrix(0.29398148,0,0,0.29398148,-4.4448691,-13.734066)" /><path
           style="fill:#63cdcf;fill-opacity:1;stroke-width:0.464231;stroke-linecap:round;stroke-linejoin:round;paint-order:markers stroke fill"
           d="m 309.67525,883.74978 c -2.02027,-1.58915 -3.67322,-4.13925 -3.67322,-5.66691 0,-1.52765 5.83704,-10.73537 12.97121,-20.46159 l 12.97121,-17.68405 -0.77295,-12.08592 c -0.42513,-6.64726 -1.08662,-12.36189 -1.47,-12.69919 -0.38337,-0.33729 -2.39293,-1.01978 -4.46569,-1.51664 -3.49656,-0.83817 -3.82945,-0.52521 -4.61082,4.33466 -1.72327,10.71826 -5.22623,26.11536 -6.65475,29.25061 -0.81168,1.78145 -3.0663,3.63817 -5.01026,4.12608 -5.25811,1.31971 -43.07404,-5.81542 -46.30143,-8.73617 -3.46168,-3.13278 -3.40049,-9.2399 0.12455,-12.43 2.65917,-2.40653 3.41745,-2.41636 16.66604,-0.21607 17.54501,2.91382 20.43541,2.89589 21.68109,-0.13453 1.55602,-3.78535 2.56967,-40.48002 1.44867,-52.44277 -1.19962,-12.80166 -4.05404,-17.0008 -15.29509,-22.50053 -9.91868,-4.85276 -20.06571,-7.42971 -33.56003,-8.52296 -11.94487,-0.96771 -14.63791,-2.12842 -14.63791,-6.30897 0,-4.34503 5.75764,-5.53576 19.33197,-3.99804 21.59079,2.44583 37.2051,8.61019 41.36211,16.32929 5.22306,9.69863 19.17099,12.55952 27.8704,5.71656 6.955,-5.4708 7.64249,-8.72584 6.46017,-30.58675 -0.95012,-17.56769 -1.5577,-21.06617 -4.96562,-28.59247 -4.20049,-9.27666 -4.31925,-13.42382 -0.40598,-14.17744 3.77124,-0.72628 6.57885,2.32781 11.30489,12.29737 4.01692,8.47368 4.28938,10.05643 4.19975,24.39651 -0.0824,13.18014 -0.59904,16.53878 -3.67679,23.90208 l -3.58092,8.56713 2.63005,10.95009 c 3.76907,15.69237 8.01632,45.97397 9.06383,64.62242 l 0.90055,16.032 -14.72988,19.68251 c -17.11417,22.86846 -18.44393,23.84847 -25.17515,18.55369 z"
           id="path1339"
           transform="matrix(0.29398148,0,0,0.29398148,-4.4448691,-13.734066)" /><path
           style="fill:#63cdcf;fill-opacity:1;stroke-width:0.464231;stroke-linecap:round;stroke-linejoin:round;paint-order:markers stroke fill"
           d="m 309.67525,883.74978 c -2.02027,-1.58915 -3.67322,-4.09623 -3.67322,-5.5713 0,-2.48719 6.74878,-12.74017 19.74901,-30.00341 5.04936,-6.70512 5.33687,-7.6291 5.20559,-16.72904 -0.18686,-12.95191 -1.26134,-16.217 -5.72997,-17.4121 -3.4759,-0.9296 -3.74775,-0.64656 -4.60083,4.79019 -0.49867,3.17799 -2.17307,11.3091 -3.72089,18.06915 -3.66033,15.98626 -4.22063,16.2773 -24.96836,12.9692 -19.59618,-3.12448 -29.17422,-5.6279 -30.69075,-8.02167 -2.10851,-3.32819 -1.34418,-9.05247 1.5596,-11.68035 2.7175,-2.45931 3.34816,-2.45864 19.5129,0.0206 9.18754,1.40911 17.0392,2.22747 17.44812,1.81854 3.11993,-3.11994 4.50142,-42.25996 2.03626,-57.69121 -1.78297,-11.16097 -3.48395,-13.43532 -14.03529,-18.76626 -9.49763,-4.79859 -20.88919,-7.76529 -34.74069,-9.04751 -11.24362,-1.04081 -13.94086,-2.28677 -13.94086,-6.43981 0,-5.72132 12.45572,-6.35842 33.37753,-1.70723 13.99129,3.11045 23.88831,8.20611 28.32632,14.58431 5.91746,8.50443 15.56328,10.88834 24.7773,6.12359 8.28405,-4.28385 9.57616,-8.55523 8.80004,-29.09072 -0.60466,-15.99878 -1.213,-19.63585 -4.86822,-29.10542 -4.50891,-11.68122 -4.67392,-15.35961 -0.72317,-16.12046 3.70533,-0.71358 7.07642,2.99366 11.5727,12.72668 3.59263,7.7769 3.99024,10.10058 3.98302,23.27724 -0.007,11.91863 -0.62844,16.36138 -3.34769,23.91538 l -3.33966,9.27747 3.01566,15.11905 c 4.6012,23.06811 7.05345,41.30096 8.05399,59.88255 l 0.90902,16.88178 -14.3431,19.07406 c -17.36195,23.08867 -18.8402,24.17735 -25.60436,18.85667 z"
           id="path1341"
           transform="matrix(0.29398148,0,0,0.29398148,-4.4448691,-13.734066)" /><path
           style="fill:#63cdcf;fill-opacity:1;stroke-width:0.464231;stroke-linecap:round;stroke-linejoin:round;paint-order:markers stroke fill"
           d="m 309.03321,883.41259 c -1.66715,-1.7746 -3.02459,-4.44079 -3.01653,-5.92487 0.0118,-2.17032 7.3533,-13.43905 13.56506,-20.82145 0.64517,-0.76675 3.69789,-4.84445 6.78383,-9.06156 l 5.61081,-7.66748 -0.78892,-12.08592 c -0.4339,-6.64726 -1.10258,-12.36189 -1.48596,-12.69919 -0.38337,-0.33729 -2.39293,-1.01978 -4.46569,-1.51664 -3.50211,-0.83949 -3.82444,-0.53292 -4.55739,4.33466 -1.50789,10.01404 -4.68362,24.77809 -6.14107,28.55007 -1.97753,5.11798 -6.83752,6.09549 -19.6276,3.94778 -32.12978,-5.39522 -34.91258,-6.50312 -34.91258,-13.89949 0,-2.12663 1.21671,-4.96773 2.70381,-6.31354 2.88566,-2.61148 2.95073,-2.60938 24.91271,0.80551 9.86546,1.53398 11.7653,1.50879 12.80269,-0.16975 2.11188,-3.4171 3.19276,-22.04324 2.46098,-42.40889 -0.70559,-19.63685 -2.4366,-27.3105 -6.16067,-27.3105 -1.02704,0 -1.86735,-0.51182 -1.86735,-1.13737 0,-1.64807 -10.57273,-7.34242 -11.64389,-6.27126 -0.49659,0.49659 -0.9029,0.24727 -0.9029,-0.55406 0,-2.03191 -16.02871,-5.84517 -28.94051,-6.885 -11.53658,-0.92908 -14.27617,-2.11603 -14.27617,-6.18526 0,-4.22892 4.69139,-5.63094 15.68525,-4.68754 13.81964,1.18589 20.74301,2.82715 32.30286,7.65777 8.10789,3.38812 10.41992,5.09411 12.97148,9.57136 6.84308,12.00762 23.26844,12.43947 31.33633,0.82389 l 3.87319,-5.57635 -1.09903,-20.21426 c -0.97268,-17.89038 -1.54205,-21.14647 -4.95266,-28.32315 -4.22246,-8.88502 -4.3744,-13.90347 -0.44363,-14.65297 3.72294,-0.70987 7.08828,2.98644 11.58871,12.72845 3.67065,7.94579 3.98794,9.92633 3.95241,24.67133 -0.0348,14.46118 -0.40957,16.83191 -3.82445,24.19615 -2.08219,4.49029 -3.4329,8.73518 -3.00157,9.43309 0.43133,0.6979 1.08627,2.98375 1.45542,5.07966 0.36914,2.09591 1.53316,7.57477 2.5867,12.17526 3.22988,14.10396 6.27065,37.20959 7.21969,54.85981 l 0.90364,16.8057 -6.43375,9.47506 c -3.53856,5.21129 -10.53569,14.65061 -15.54917,20.97628 -9.99527,12.61135 -13.2087,14.03908 -18.62408,8.27467 z"
           id="path1343"
           transform="matrix(0.29398148,0,0,0.29398148,-4.4448691,-13.734066)" /><path
           style="fill:#63cdcf;fill-opacity:1;stroke-width:0.464231;stroke-linecap:round;stroke-linejoin:round;paint-order:markers stroke fill"
           d="m 310.88133,884.97327 c -7.63039,-4.32691 -6.65996,-7.50481 8.47734,-27.76092 7.34616,-9.83032 12.97671,-18.48807 12.51234,-19.23944 -0.46438,-0.75136 -0.88479,-5.68903 -0.93425,-10.97258 -0.10325,-11.02818 -0.55583,-12.08768 -5.70095,-13.34632 -3.49985,-0.85616 -3.82944,-0.54832 -4.62098,4.31613 -2.4982,15.35296 -5.46198,27.91598 -7.27821,30.85124 -1.91553,3.09574 -2.64075,3.25606 -11.31258,2.50067 -5.09621,-0.44391 -10.83418,-1.16563 -12.75105,-1.60381 -1.91687,-0.43817 -8.00971,-1.68556 -13.53965,-2.77195 -5.52993,-1.08638 -11.33282,-2.65942 -12.8953,-3.49564 -3.82205,-2.0455 -3.85429,-9.83163 -0.0549,-13.26999 2.65918,-2.40653 3.41745,-2.41636 16.66604,-0.21607 19.27532,3.20119 20.70054,3.10214 21.99555,-1.52857 1.04766,-3.74628 1.47577,-49.20482 0.52844,-56.11199 -0.91323,-6.65852 -3.14649,-10.79081 -6.86721,-12.70671 -2.05799,-1.05972 -4.05547,-2.31073 -4.43884,-2.78003 -3.36663,-4.12117 -21.63034,-9.24797 -37.10493,-10.41571 -11.6234,-0.87713 -14.47628,-2.11537 -14.47628,-6.2832 0,-4.03411 4.84113,-5.73072 13.67,-4.79078 26.4663,2.81769 42.50448,8.64609 47.05786,17.10122 3.43229,6.37337 12.35186,10.65584 19.42884,9.32819 2.68542,-0.50379 4.88259,-1.51052 4.88259,-2.23719 0,-0.72666 0.53614,-0.98985 1.19144,-0.58486 1.3372,0.82644 6.02735,-3.90146 8.35153,-8.41874 1.05165,-2.04401 1.18963,-9.20316 0.44334,-23.00243 -0.95112,-17.58647 -1.55806,-21.08276 -4.96657,-28.61037 -4.34939,-9.60551 -4.32431,-13.52589 0.0906,-14.15803 3.95234,-0.56591 9.0995,6.2647 12.89233,17.10894 3.62825,10.37369 3.87064,26.41303 0.56046,37.08711 -1.2915,4.16459 -2.41157,7.88565 -2.48905,8.26903 -0.0775,0.38337 -0.88201,2.02842 -1.78784,3.65567 -1.18859,2.1352 -1.24933,4.26917 -0.21826,7.66748 0.78579,2.58986 1.71252,6.27719 2.05939,8.19406 0.34689,1.91687 0.99862,5.05356 1.4483,6.97043 0.95781,4.08287 1.22291,5.63536 3.3327,19.51722 1.56308,10.28469 1.89099,13.42816 3.98504,38.20231 l 1.0491,12.41171 -5.27189,7.80255 c -7.6798,11.36635 -8.60377,12.67768 -10.91201,15.48686 -1.15012,1.39972 -3.34581,4.2916 -4.8793,6.42639 -9.04623,12.59332 -12.35743,14.67765 -18.12313,11.40812 z"
           id="path1345"
           transform="matrix(0.29398148,0,0,0.29398148,-4.4448691,-13.734066)" /></g><g
         id="g2955"
         inkscape:label="out"><path
           d="m 91.781914,187.48108 c -1.13792,0.66649 -1.170432,1.67437 -0.08128,3.46253 1.70688,2.81228 2.35712,6.32358 1.804416,9.67232 -0.16256,0.99161 -0.146304,1.25171 0.130048,2.14579 0.471424,1.56057 0.4064,2.94233 -0.227584,4.22656 -1.658112,3.34873 -5.85216,4.16153 -8.631936,1.65811 -0.357632,-0.32512 -0.89408,-1.0729 -1.186688,-1.65811 l -0.503936,-1.04039 -1.804416,-0.87782 c -3.121152,-1.52806 -6.112256,-2.32461 -10.029952,-2.6985 -1.121664,-0.0975 -2.649728,-0.16256 -3.381248,-0.13004 -1.284224,0.065 -1.365504,0.0975 -1.820672,0.60147 -0.699008,0.76403 -0.666496,1.65811 0.08128,2.40589 l 0.552704,0.5527 h 1.755648 c 5.52704,0 10.907776,1.59309 14.14272,4.16154 1.284224,1.02412 1.2192,0.84531 1.674368,4.37286 0.455168,3.43002 0.56896,6.99008 0.357632,9.99744 -0.16256,2.16205 -0.666496,5.70586 -0.910336,6.51866 -0.08128,0.22758 -0.601472,0.16256 -4.356608,-0.53645 -5.088128,-0.92659 -5.673344,-0.95911 -6.567424,-0.30887 -0.666496,0.48768 -1.186688,1.44679 -1.186688,2.22708 0,0.87782 0.682752,2.01574 1.46304,2.42214 0.682752,0.35763 12.175744,2.40589 12.988544,2.30835 0.747776,-0.0813 1.349248,-0.43891 1.853184,-1.12166 0.585216,-0.79655 1.593088,-5.26695 2.145792,-9.59104 l 0.09754,-0.76403 0.601472,0.0813 c 1.528064,0.21132 1.6256,0.22758 1.723136,0.58521 0.04877,0.19507 0.178816,1.86944 0.276352,3.70637 l 0.195072,3.33248 -3.57632,4.81178 c -1.983232,2.64972 -3.673856,4.97433 -3.771392,5.15315 -0.32512,0.60147 -0.227584,2.032 0.195072,2.64973 0.780288,1.18668 2.633472,1.60934 3.771392,0.86156 0.520192,-0.34137 7.88416,-10.11123 8.501888,-11.28166 0.390144,-0.71526 0.390144,-0.79654 0.292608,-3.82016 -0.195072,-6.38861 -1.332992,-14.53286 -3.023616,-21.65299 l -0.471424,-1.98323 0.455168,-1.02413 c 1.316736,-2.89357 1.86944,-5.52704 1.853184,-8.82701 0,-2.27584 -0.06502,-2.81229 -0.422656,-4.22656 -0.48768,-1.83693 -1.918208,-4.8768 -2.747264,-5.81965 -0.601472,-0.69901 -1.54432,-0.94285 -2.210816,-0.5527 z"
           id="path14500"
           style="fill:#3e7475;fill-opacity:1;stroke:none;stroke-width:0.016256" /><path
           d="m 87.604122,199.72185 c -2.080768,0.52019 -3.397504,1.80441 -3.917696,3.78764 -0.422656,1.65812 0.08128,3.41376 1.349248,4.66548 1.446784,1.46304 3.803904,1.82067 5.705856,0.86156 1.121664,-0.5527 1.70688,-1.17043 2.243328,-2.34086 0.536448,-1.18669 0.617728,-2.01574 0.32512,-3.15366 -0.422656,-1.65812 -1.365504,-2.81229 -2.812288,-3.46253 -0.682752,-0.29261 -2.308352,-0.50394 -2.893568,-0.35763 z"
           id="path14502"
           style="fill:#3e7475;fill-opacity:1;stroke:none;stroke-width:0.016256" /><path
           d="m 42.753818,208.30501 c -0.682752,0.4064 -1.398016,1.43053 -1.398016,1.99949 0,0.2601 -0.09754,0.37389 -0.32512,0.37389 -0.601472,0 -1.609344,0.65024 -2.048256,1.30048 -0.341376,0.50394 -0.438912,0.86157 -0.438912,1.51181 0,1.57683 0.991616,2.69849 2.51968,2.8448 l 0.829056,0.0813 -0.113792,1.83693 c -0.08128,1.59308 -0.06502,1.85318 0.146304,1.85318 0.130048,0 0.24384,-0.0975 0.24384,-0.22758 0,-0.21133 0.211328,-2.56845 0.4064,-4.45415 0.08128,-0.8128 0.06502,-0.84531 -0.32512,-0.84531 -0.373888,0 -0.4064,0.065 -0.4064,0.6665 0,0.65024 -0.01626,0.66649 -0.438912,0.5527 -2.19456,-0.53645 -2.714752,-3.2512 -0.829056,-4.37286 0.503936,-0.30887 0.780288,-0.32512 0.780288,-0.065 0.01626,0.11379 0.113792,0.42266 0.227584,0.69901 0.195072,0.47142 0.195072,0.45517 0.195072,-0.34138 0,-1.49555 1.007872,-2.55219 2.422144,-2.55219 0.942848,0 1.70688,0.47143 2.162048,1.34925 0.357632,0.71526 0.373888,1.2192 0.08128,2.08077 -0.06502,0.21133 -0.03251,0.19507 0.16256,-0.0488 0.211328,-0.27635 0.276352,-0.27635 0.520192,-0.0813 0.715264,0.58522 0.942848,1.8857 0.48768,2.74726 -0.130048,0.2601 -0.455168,0.65024 -0.73152,0.89408 -0.422656,0.34138 -0.682752,0.42266 -1.414272,0.42266 -0.97536,0 -0.959104,0.0325 -0.617728,-1.0729 0.08128,-0.24384 0.03251,-0.37388 -0.178816,-0.45516 -0.146304,-0.0488 -0.308864,-0.0813 -0.341376,-0.0488 -0.03251,0.0325 -0.422656,1.2192 -0.861568,2.63347 -0.520192,1.64186 -0.764032,2.63347 -0.65024,2.74726 0.16256,0.16256 0.24384,0.0163 0.942848,-1.85318 0.4064,-1.08915 0.503936,-1.2192 0.861568,-1.18669 1.755648,0.16256 2.454656,-0.0162 3.267456,-0.87782 1.154176,-1.2192 1.040384,-3.08864 -0.24384,-4.22656 -0.520192,-0.45517 -0.56896,-0.58522 -0.48768,-1.0729 0.178816,-1.10541 -0.633984,-2.53593 -1.690624,-2.97485 -0.829056,-0.35763 -1.983232,-0.2926 -2.714752,0.16256 z"
           id="path14504"
           style="fill:#9e9e9e;fill-opacity:0.994594;stroke:none;stroke-width:0.016256" /><path
           d="m 34.723354,213.31186 c -0.260096,0.2601 -0.24384,0.94285 0.01626,0.94285 0.09754,0 0.357632,0.0488 0.56896,0.11379 0.341376,0.0813 0.373888,0.0488 0.32512,-0.35763 -0.06502,-0.5527 -0.617728,-0.99162 -0.910336,-0.69901 z"
           id="path14506"
           style="fill:#dbc074;fill-opacity:1;stroke:none;stroke-width:0.016256" /><path
           d="m 75.29833,219.42412 c -5.331968,3.72262 -6.58368,4.68173 -5.722112,4.35661 0.32512,-0.13005 12.094464,-8.37184 12.094464,-8.48564 0,-0.27635 -1.105408,0.43892 -6.372352,4.12903 z"
           id="path14508"
           style="fill:#719cd6;fill-opacity:1;stroke:none;stroke-width:0.016256" /><path
           d="m 34.138138,217.44089 c -0.146304,0.37388 -0.130048,0.39014 0.308864,0.39014 0.292608,0 0.4064,-0.0813 0.4064,-0.32512 0,-0.39014 -0.56896,-0.45517 -0.715264,-0.065 z"
           id="path14510"
           style="fill:#dbc074;fill-opacity:1;stroke:none;stroke-width:0.016256" /><path
           d="m 36.85289,218.25369 c -1.576832,4.37286 -2.698496,7.47776 -2.731008,7.51027 -0.03251,0.0325 -1.674368,-0.35763 -3.6576,-0.86157 -1.983232,-0.50394 -3.641344,-0.87782 -3.690112,-0.82906 -0.04877,0.0325 0.926592,1.69063 2.145792,3.67386 1.2192,1.98323 2.19456,3.62509 2.178304,3.6576 -0.03251,0.0163 -1.739392,0.50394 -3.803904,1.05664 -2.048256,0.5527 -3.868928,1.05664 -4.031488,1.12166 -0.195072,0.0813 0.959104,0.69901 3.950208,2.12954 2.324608,1.10541 4.22656,2.08077 4.22656,2.14579 0,0.065 -1.024128,1.91821 -2.259584,4.11277 -1.251712,2.19456 -2.227072,3.98272 -2.162048,3.98272 0.06502,0 1.983232,-0.73152 4.259072,-1.60934 2.27584,-0.87783 4.177792,-1.57684 4.210304,-1.54432 0.01626,0.0162 0.211328,1.99948 0.422656,4.37286 0.211328,2.38963 0.4064,4.35661 0.438912,4.40538 0.04877,0.0325 1.528064,-1.51181 3.283712,-3.44628 2.893568,-3.1374 3.2512,-3.46252 3.430016,-3.20243 0.09754,0.16256 0.910336,1.4793 1.78816,2.94234 0.877824,1.44678 1.641856,2.63347 1.690624,2.63347 0.06502,0 0.308864,-1.6256 0.552704,-3.60883 0.24384,-1.98323 0.471424,-3.62509 0.503936,-3.67386 0.04877,-0.0325 1.674368,0.48768 3.625088,1.17043 1.95072,0.68276 3.592576,1.23546 3.6576,1.23546 0.06502,0 -0.764032,-1.4793 -1.820672,-3.29997 -1.05664,-1.80441 -1.86944,-3.33248 -1.820672,-3.3975 0.06502,-0.0488 1.54432,-0.74778 3.283712,-1.52807 1.739392,-0.78028 3.234944,-1.46304 3.299968,-1.52806 0.08128,-0.065 -1.430528,-0.65024 -3.364992,-1.30048 -1.934464,-0.63398 -3.511296,-1.20294 -3.511296,-1.23546 0,-0.0325 0.877824,-1.83692 1.966976,-3.98272 1.072896,-2.16204 1.934464,-3.93395 1.901952,-3.96646 -0.03251,-0.0163 -1.576832,0.29261 -3.446272,0.68275 -1.853184,0.39015 -3.397504,0.69901 -3.430016,0.6665 -0.01626,-0.0325 -0.24384,-1.54432 -0.48768,-3.38125 -0.24384,-1.83693 -0.48768,-3.54381 -0.536448,-3.78765 -0.113792,-0.43891 -0.211328,-0.34137 -2.779776,2.48717 -1.46304,1.60934 -2.714752,2.97485 -2.779776,3.00736 -0.08128,0.0488 -0.97536,-1.43053 -2.015744,-3.28371 -1.024128,-1.86944 -1.966976,-3.52755 -2.097024,-3.69011 -0.211328,-0.29261 -0.227584,-0.29261 -0.390144,0.16256 z m 2.373376,8.59942 c 0.747776,1.33299 1.398016,2.50342 1.479296,2.56845 0.06502,0.0813 1.072896,-0.89408 2.210816,-2.16205 1.154176,-1.26797 2.11328,-2.24333 2.129536,-2.16205 0.03251,0.065 0.195072,1.13792 0.357632,2.37338 0.178816,1.23545 0.357632,2.29209 0.4064,2.34086 0.04877,0.0488 1.007872,-0.0975 2.145792,-0.34137 1.13792,-0.22759 2.097024,-0.4064 2.129536,-0.35764 0.03251,0.0325 -0.601472,1.34925 -1.414272,2.92608 -1.072896,2.04826 -1.430528,2.87732 -1.267968,2.94234 0.113792,0.0488 0.942848,0.32512 1.836928,0.63398 l 1.6256,0.53645 -1.30048,0.60147 c -0.715264,0.32512 -1.495552,0.68276 -1.739392,0.78029 l -0.438912,0.21133 0.89408,1.51181 c 0.503936,0.84531 0.877824,1.54432 0.845312,1.57683 -0.03251,0.0488 -0.877824,-0.21133 -1.86944,-0.56896 -2.080768,-0.73152 -1.885696,-0.84531 -2.097024,1.26797 -0.04877,0.65024 -0.16256,1.2192 -0.227584,1.25171 -0.08128,0.0488 -0.455168,-0.47142 -0.845312,-1.13792 -0.373888,-0.6665 -0.747776,-1.2192 -0.796544,-1.2192 -0.06502,0 -1.154176,1.13792 -2.422144,2.51968 -1.267968,1.39802 -2.35712,2.48717 -2.422144,2.4384 -0.04877,-0.065 -0.211328,-1.44678 -0.357632,-3.1049 -0.130048,-1.64185 -0.292608,-3.02361 -0.341376,-3.07238 -0.04877,-0.0488 -1.170432,0.30886 -2.487168,0.8128 -1.316736,0.50394 -2.405888,0.89408 -2.4384,0.86157 -0.01626,-0.0325 0.503936,-0.99162 1.154176,-2.12954 l 1.186688,-2.09702 -2.389632,-1.13792 c -1.316736,-0.63399 -2.292096,-1.18669 -2.178304,-1.2192 0.113792,-0.0488 1.170432,-0.34138 2.340864,-0.6665 1.170432,-0.34137 2.129536,-0.68275 2.11328,-0.76403 -0.01626,-0.0975 -0.666496,-1.17043 -1.430528,-2.42214 -0.764032,-1.23546 -1.349248,-2.27584 -1.316736,-2.30836 0.03251,-0.0488 0.747776,0.1138 1.593088,0.34138 0.845312,0.22758 1.609344,0.4064 1.70688,0.4064 0.09754,0 0.56896,-1.10541 1.05664,-2.4384 0.666496,-1.8857 0.910336,-2.38963 1.040384,-2.24333 0.113792,0.11379 0.796544,1.30048 1.528064,2.64973 z"
           id="path14512"
           style="fill:#c94f6d;fill-opacity:1;stroke:none;stroke-width:0.016256" /><path
           d="m 37.145498,229.35653 c -0.195072,0.34138 -0.08128,0.50394 0.341376,0.50394 0.211328,0 0.292608,-0.11379 0.292608,-0.4064 0,-0.48768 -0.4064,-0.5527 -0.633984,-0.0975 z"
           id="path14514"
           style="fill:#dbc074;fill-opacity:1;stroke:none;stroke-width:0.016256" /><path
           d="m 41.97353,231.53484 c -0.56896,0.16256 -0.617728,0.21133 -0.617728,0.76403 0,0.47142 0.130048,0.71526 0.617728,1.18669 0.56896,0.56896 0.682752,0.60147 1.284224,0.50393 0.89408,-0.13004 0.959104,-0.19507 1.072896,-1.07289 l 0.09754,-0.76403 -0.747776,-0.4064 c -0.8128,-0.45517 -0.829056,-0.45517 -1.70688,-0.21133 z"
           id="path14516"
           style="fill:#dbc074;fill-opacity:1;stroke:none;stroke-width:0.016256" /><path
           d="m 37.877018,232.77029 c -0.276352,0.30887 -0.276352,0.34138 -0.01626,0.79655 0.211328,0.34137 0.373888,0.45517 0.601472,0.39014 0.455168,-0.11379 0.699008,-0.71526 0.471424,-1.15417 -0.24384,-0.42266 -0.682752,-0.43892 -1.05664,-0.0325 z"
           id="path14518"
           style="fill:#dbc074;fill-opacity:1;stroke:none;stroke-width:0.016256" /><path
           d="m 39.892762,234.00575 c 0,0.47142 0.48768,1.02413 0.8128,0.94285 0.4064,-0.11379 0.455168,-0.94285 0.06502,-1.08915 -0.455168,-0.17882 -0.877824,-0.0975 -0.877824,0.1463 z"
           id="path14520"
           style="fill:#dbc074;fill-opacity:1;stroke:none;stroke-width:0.016256" /><path
           d="m 44.81833,233.95698 c 0.03251,0.11379 0.16256,0.21133 0.276352,0.21133 0.113792,0 0.24384,-0.0975 0.292608,-0.21133 0.03251,-0.11379 -0.08128,-0.19507 -0.292608,-0.19507 -0.211328,0 -0.32512,0.0813 -0.276352,0.19507 z"
           id="path14522"
           style="fill:#dbc074;fill-opacity:1;stroke:none;stroke-width:0.016256" /><path
           d="m 42.932634,234.93234 c -0.308864,0.11379 -0.422656,0.24384 -0.373888,0.4064 0.04877,0.13005 0.09754,0.37389 0.09754,0.55271 0,0.42265 0.552704,0.4064 1.154176,-0.0325 0.455168,-0.32512 0.471424,-0.34137 0.178816,-0.71526 -0.308864,-0.43891 -0.390144,-0.45517 -1.05664,-0.21133 z"
           id="path14524"
           style="fill:#dbc074;fill-opacity:1;stroke:none;stroke-width:0.016256" /><path
           d="m 37.454362,235.24121 c -0.24384,0.43891 0.04877,0.79654 0.682752,0.79654 0.536448,0 0.715264,-0.30886 0.455168,-0.79654 -0.227584,-0.43892 -0.910336,-0.45517 -1.13792,0 z"
           id="path14526"
           style="fill:#dbc074;fill-opacity:1;stroke:none;stroke-width:0.016256" /><path
           d="m 39.437594,236.44415 c -0.292608,0.63398 -0.227584,1.12166 0.178816,1.49555 0.422656,0.39015 1.121664,0.35763 1.723136,-0.0975 l 0.373888,-0.27636 -0.373888,-0.76403 c -0.357632,-0.73152 -0.4064,-0.76403 -1.040384,-0.76403 -0.56896,0 -0.715264,0.065 -0.861568,0.4064 z"
           id="path14528"
           style="fill:#dbc074;fill-opacity:1;stroke:none;stroke-width:0.016256" /><path
           d="m 42.656282,237.33823 c 0,0.17882 0.06502,0.32512 0.146304,0.32512 0.211328,0 0.520192,-0.42266 0.390144,-0.53645 -0.211328,-0.22758 -0.536448,-0.0975 -0.536448,0.21133 z"
           id="path14530"
           style="fill:#dbc074;fill-opacity:1;stroke:none;stroke-width:0.016256" /><path
           d="m 74.518042,222.39897 c -2.909824,2.04825 -5.60832,3.9502 -6.01472,4.24281 -0.4064,0.27635 -0.65024,0.53645 -0.536448,0.56896 0.178816,0.065 11.964416,-8.09549 12.159488,-8.42061 0.32512,-0.50393 -0.89408,0.27636 -5.60832,3.60884 z"
           id="path14532"
           style="fill:#719cd6;fill-opacity:1;stroke:none;stroke-width:0.016256" /><path
           d="m 68.47081,225.43884 c -7.705344,5.41325 -9.395968,6.6487 -8.518144,6.32358 0.178816,-0.065 16.889984,-11.73683 17.31264,-12.07821 0.01626,-0.0163 0.01626,-0.11379 0,-0.21132 -0.03251,-0.0813 -3.998976,2.60096 -8.794496,5.96595 z"
           id="path14534"
           style="fill:#719cd6;fill-opacity:1;stroke:none;stroke-width:0.016256" /><path
           d="m 30.18793,220.52953 c -0.130048,0.32512 0.130048,0.78028 0.48768,0.84531 0.146304,0.0325 0.390144,-0.14631 0.536448,-0.37389 0.24384,-0.37389 0.24384,-0.45517 0.04877,-0.58522 -0.373888,-0.22758 -0.959104,-0.16256 -1.072896,0.1138 z"
           id="path14536"
           style="fill:#dbc074;fill-opacity:1;stroke:none;stroke-width:0.016256" /><path
           d="m 53.499034,221.03346 c -0.06502,0.0488 -0.113792,0.30887 -0.113792,0.56896 0,0.4064 0.04877,0.45517 0.56896,0.45517 0.633984,0 0.715264,-0.21133 0.308864,-0.78029 -0.24384,-0.35763 -0.56896,-0.45517 -0.764032,-0.24384 z"
           id="path14538"
           style="fill:#dbc074;fill-opacity:1;stroke:none;stroke-width:0.016256" /><path
           d="m 20.629402,223.01669 c -0.357632,0.16256 -0.780288,0.43892 -0.942848,0.61773 -0.24384,0.27635 -0.373888,0.30887 -0.89408,0.16256 -1.284224,-0.34137 -2.633472,0.29261 -3.2512,1.51181 -0.438912,0.87782 -0.455168,1.64186 -0.04877,2.53594 0.308864,0.66649 1.105408,1.39801 1.723136,1.59308 0.227584,0.065 0.341376,0.2601 0.373888,0.6665 0.04877,0.76403 0.390144,1.39802 0.991616,1.91821 1.70688,1.43053 4.177792,0.56896 4.649216,-1.64186 0.04877,-0.27635 0.178816,-0.52019 0.24384,-0.52019 0.08128,0 0.910336,0.1463 1.820672,0.32512 0.926592,0.17882 1.690624,0.32512 1.723136,0.32512 0.01626,0 0.03251,-0.0975 0.03251,-0.22758 0,-0.16256 -0.764032,-0.4064 -2.552192,-0.82906 -1.414272,-0.34138 -2.665984,-0.65024 -2.76352,-0.68275 -0.130048,-0.0488 -0.211328,0.065 -0.211328,0.32512 0,0.34137 0.09754,0.4064 0.65024,0.50393 l 0.65024,0.0975 -0.24384,0.60147 c -0.32512,0.78029 -0.471424,0.94285 -1.121664,1.25171 -1.089152,0.5202 -2.470912,0.16256 -3.039872,-0.78028 -0.520192,-0.84532 -0.422656,-1.17044 0.390144,-1.31674 l 0.682752,-0.13005 -0.747776,-0.0975 c -1.398016,-0.19508 -2.259584,-1.13792 -2.259584,-2.47092 0,-1.78816 1.885696,-2.95859 3.462528,-2.16204 0.520192,0.27635 0.520192,0.27635 0.227584,-0.0488 -0.276352,-0.32512 -0.276352,-0.34138 0.16256,-0.61773 0.666496,-0.43891 1.804416,-0.48768 2.487168,-0.11379 0.747776,0.42265 1.38176,1.60934 1.235456,2.34086 -0.178816,0.92659 -0.292608,0.99162 -0.97536,0.6665 -0.520192,-0.24384 -0.617728,-0.24384 -0.747776,-0.0488 -0.09754,0.13005 -0.16256,0.27635 -0.16256,0.32512 0.01626,0.1463 5.03936,2.48717 5.136896,2.38963 0.195072,-0.17881 -0.113792,-0.42265 -1.495552,-1.17043 -1.089152,-0.60147 -1.365504,-0.8128 -1.284224,-1.02413 0.308864,-0.76403 0.422656,-1.46304 0.341376,-2.04825 -0.32512,-1.96698 -2.422144,-3.07239 -4.242816,-2.22708 z"
           id="path14540"
           style="fill:#9e9e9e;fill-opacity:0.994594;stroke:none;stroke-width:0.016256" /><path
           d="m 50.67049,222.83788 c -0.455168,0.065 -0.48768,0.52019 -0.08128,0.89408 0.276352,0.26009 0.32512,0.24384 0.682752,-0.13005 0.211328,-0.22758 0.357632,-0.42266 0.308864,-0.45517 -0.03251,-0.0162 -0.178816,-0.11379 -0.308864,-0.21133 -0.130048,-0.0813 -0.4064,-0.13004 -0.601472,-0.0975 z"
           id="path14542"
           style="fill:#dbc074;fill-opacity:1;stroke:none;stroke-width:0.016256" /><path
           d="m 57.888154,225.7477 c -0.260096,0.24384 -0.09754,0.53645 0.292608,0.53645 0.292608,0 0.4064,-0.0813 0.4064,-0.32512 0,-0.32512 -0.455168,-0.45517 -0.699008,-0.21133 z"
           id="path14544"
           style="fill:#dbc074;fill-opacity:1;stroke:none;stroke-width:0.016256" /><path
           d="m 60.700442,234.81855 c 0,0.29261 0.08128,0.4064 0.308864,0.4064 0.438912,0 0.552704,-0.24384 0.24384,-0.5527 -0.357632,-0.37389 -0.552704,-0.32512 -0.552704,0.1463 z"
           id="path14546"
           style="fill:#dbc074;fill-opacity:1;stroke:none;stroke-width:0.016256" /><path
           d="m 25.327386,238.39487 c -0.113792,0.29261 0.04877,0.56896 0.357632,0.56896 0.130048,0 0.227584,-0.16256 0.227584,-0.4064 0,-0.43891 -0.438912,-0.56896 -0.585216,-0.16256 z"
           id="path14548"
           style="fill:#dbc074;fill-opacity:1;stroke:none;stroke-width:0.016256" /><path
           d="m 60.781722,238.36236 c -0.666496,0.30886 -1.641856,1.43053 -1.78816,2.032 l -0.09754,0.48768 -1.901952,-0.63399 c -2.11328,-0.71526 -2.145792,-0.71526 -2.145792,-0.42265 0,0.19507 5.169408,2.38963 5.640832,2.38963 0.146304,0 0.373888,-0.34138 0.373888,-0.56896 0,-0.0325 -0.292608,-0.16256 -0.65024,-0.2601 -0.780288,-0.24384 -0.829056,-0.5527 -0.211328,-1.30048 1.46304,-1.73939 4.454144,-0.89408 4.63296,1.333 0.04877,0.45516 -0.01626,0.5527 -0.276352,0.56896 -0.178816,0.0163 -0.585216,0.0488 -0.89408,0.065 -0.455168,0.0325 -0.48768,0.065 -0.16256,0.11379 0.926592,0.14631 1.479296,0.42266 1.934464,0.94285 1.284224,1.46304 0.861568,3.54381 -0.861568,4.3241 -0.861568,0.39014 -1.495552,0.39014 -2.292096,-0.0163 -0.764032,-0.39014 -0.829056,-0.4064 -0.552704,-0.065 0.24384,0.30886 0.06502,0.45516 -0.861568,0.71526 -1.885696,0.52019 -3.706368,-1.31674 -3.186176,-3.21869 0.260096,-0.99161 0.48768,-1.12166 1.154176,-0.61773 0.536448,0.4064 0.552704,0.42266 0.829056,0.1138 0.276352,-0.29261 0.195072,-0.37389 -2.324608,-2.06452 -1.804416,-1.20294 -2.665984,-1.70688 -2.796032,-1.57683 -0.113792,0.11379 0.32512,0.52019 1.398016,1.33299 0.845312,0.63399 1.54432,1.20295 1.54432,1.25172 0,0.0325 -0.146304,0.27635 -0.32512,0.52019 -0.73152,1.02413 -0.699008,2.61721 0.06502,3.78765 0.503936,0.76403 1.78816,1.44678 2.698496,1.43052 0.699008,0 1.70688,-0.34137 2.11328,-0.71526 0.292608,-0.2601 0.357632,-0.2601 0.97536,-0.0163 2.227072,0.89408 4.55168,-0.73152 4.55168,-3.18617 0,-0.79655 -0.633984,-1.91821 -1.398016,-2.48717 -0.633984,-0.47142 -0.682752,-0.53645 -0.747776,-1.4793 -0.06502,-1.13792 -0.48768,-1.88569 -1.398016,-2.51968 -0.682752,-0.45516 -2.27584,-0.60147 -3.039872,-0.26009 z"
           id="path14550"
           style="fill:#9e9e9e;fill-opacity:0.994594;stroke:none;stroke-width:0.016256" /><path
           d="m 30.83817,247.82335 -1.13792,1.25171 -0.780288,-0.50393 c -1.414272,-0.89408 -2.991104,-0.61773 -4.047744,0.699 -0.65024,0.79655 -0.764032,2.1458 -0.276352,3.08864 0.32512,0.61773 0.32512,0.63399 0.01626,1.25172 -0.585216,1.13792 -0.341376,2.55219 0.585216,3.43001 1.2192,1.13792 3.137408,1.04039 4.194048,-0.19507 0.422656,-0.50394 0.520192,-0.53645 1.316736,-0.50394 1.70688,0.0813 2.861056,-0.92659 2.974848,-2.60096 0.113792,-1.44678 -0.471424,-2.29209 -2.048256,-3.00736 -0.03251,-0.0163 0.276352,-0.74777 0.699008,-1.6256 0.4064,-0.87782 0.699008,-1.70688 0.65024,-1.83692 -0.130048,-0.30887 -0.24384,-0.13005 -1.690624,2.61721 -1.121664,2.12954 -1.154176,2.22707 -0.845312,2.40589 0.292608,0.1463 0.357632,0.0975 0.56896,-0.4064 0.292608,-0.68275 0.552704,-0.71526 1.105408,-0.13005 0.845312,0.87783 0.991616,1.83693 0.422656,2.82855 -0.357632,0.65024 -1.365504,1.28422 -2.048256,1.28422 -0.32512,0 -0.357632,-0.0975 -0.373888,-0.86157 l -0.01626,-0.84531 -0.16256,0.61773 c -0.48768,1.85318 -2.779776,2.50342 -4.112768,1.17043 -0.877824,-0.87782 -0.959104,-2.2921 -0.211328,-3.2512 l 0.341376,-0.45517 -0.341376,0.19507 c -0.32512,0.16256 -0.357632,0.13005 -0.536448,-0.50393 -0.471424,-1.78816 1.267968,-3.47879 3.00736,-2.89357 0.89408,0.29261 1.040384,0.58522 0.536448,1.10541 -0.4064,0.42265 -0.422656,0.47142 -0.16256,0.71526 0.24384,0.24384 0.390144,0.11379 2.064512,-1.85318 0.991616,-1.17043 1.78816,-2.17831 1.771904,-2.22707 -0.09754,-0.30887 -0.471424,-0.0488 -1.46304,1.04038 z"
           id="path14552"
           style="fill:#9e9e9e;fill-opacity:0.994594;stroke:none;stroke-width:0.016256" /><path
           d="m 42.70505,249.95289 c -0.04877,0.1463 0.04877,0.39014 0.24384,0.60147 0.341376,0.32512 0.357632,0.32512 0.682752,0.0325 0.178816,-0.16256 0.32512,-0.39014 0.32512,-0.48768 0,-0.43891 -1.089152,-0.5527 -1.251712,-0.1463 z"
           id="path14554"
           style="fill:#dbc074;fill-opacity:1;stroke:none;stroke-width:0.016256" /><path
           d="m 39.925274,251.3509 c -0.113792,0.11379 -0.195072,0.4064 -0.195072,0.65024 0,0.4064 0.04877,0.45517 0.585216,0.45517 0.552704,0 0.585216,-0.0163 0.471424,-0.43891 -0.06502,-0.2601 -0.113792,-0.45517 -0.130048,-0.45517 -0.01626,-0.0163 -0.146304,-0.0975 -0.292608,-0.21133 -0.195072,-0.1463 -0.292608,-0.1463 -0.438912,0 z"
           id="path14556"
           style="fill:#dbc074;fill-opacity:1;stroke:none;stroke-width:0.016256" /><path
           d="m 52.800026,251.49721 c -0.16256,0.27635 0.373888,0.74777 0.601472,0.52019 0.113792,-0.11379 0.146304,-0.30887 0.09754,-0.43891 -0.113792,-0.29261 -0.536448,-0.34138 -0.699008,-0.0813 z"
           id="path14558"
           style="fill:#dbc074;fill-opacity:1;stroke:none;stroke-width:0.016256" /><path
           d="m 43.696666,254.48831 c -0.113792,0.29261 0.04877,0.56896 0.357632,0.56896 0.130048,0 0.227584,-0.16256 0.227584,-0.4064 0,-0.43891 -0.438912,-0.56896 -0.585216,-0.16256 z"
           id="path14560"
           style="fill:#dbc074;fill-opacity:1;stroke:none;stroke-width:0.016256" /><path
           style="fill:#63cdcf;fill-opacity:1;stroke-width:0.464231;stroke-linecap:round;stroke-linejoin:round;paint-order:markers stroke fill"
           d="m 311.57838,885.67167 c -3.00191,-1.07286 -5.57635,-4.70339 -5.57635,-7.86391 0,-1.49715 6.01049,-10.76509 13.35664,-20.59541 7.34616,-9.83032 12.96234,-18.51131 12.48041,-19.29109 -0.48193,-0.77979 -0.88976,-5.69709 -0.90629,-10.92736 -0.0345,-10.90717 -0.53402,-12.07688 -5.69698,-13.33989 -3.50233,-0.85677 -3.82717,-0.55176 -4.59675,4.31613 -0.45545,2.88093 -2.10703,11.07897 -3.67018,18.21786 -3.68006,16.8069 -4.22441,17.10846 -24.6921,13.67845 -30.00162,-5.02774 -32.27961,-5.96618 -32.27961,-13.29795 0,-2.12663 1.25367,-5.00117 2.78593,-6.38784 2.65917,-2.40653 3.41745,-2.41636 16.66604,-0.21607 15.19104,2.52288 20.89343,2.86277 21.13238,1.2596 0.0857,-0.57506 0.55621,-3.24125 1.04556,-5.92487 1.70732,-9.36297 1.00624,-54.7906 -0.91579,-59.34079 -3.83255,-9.07307 -24.82451,-17.84297 -46.92603,-19.60448 -6.1678,-0.49158 -11.99835,-1.51331 -12.95678,-2.27051 -2.9299,-2.31473 -1.99907,-6.58319 1.74612,-8.00711 6.55089,-2.49064 33.18531,1.44958 42.5567,6.29572 2.26186,1.16965 4.58955,2.19883 5.17265,2.28707 3.6421,0.55117 7.16548,3.43648 9.50787,7.78605 5.19066,9.63846 19.16665,12.47868 27.83853,5.65737 6.955,-5.4708 7.64249,-8.72584 6.46017,-30.58675 -0.95012,-17.56769 -1.5577,-21.06617 -4.96562,-28.59247 -4.21195,-9.30197 -4.31925,-13.42382 -0.36923,-14.18452 4.0044,-0.77118 10.55912,7.0129 12.70901,15.09262 0.102,0.38337 1.02425,3.14868 2.04943,6.14513 2.65396,7.75714 1.27719,27.16364 -2.67945,37.7686 -1.71641,4.60049 -3.13192,9.30553 -3.14558,10.45565 -0.0137,1.15012 1.67696,10.24654 3.75694,20.21426 2.07999,9.96772 4.08331,21.57349 4.45183,25.7906 0.36853,4.21711 0.94986,8.507 1.29185,9.53307 0.342,1.02608 1.02024,9.38115 1.50722,18.56683 0.82838,15.62555 0.69348,16.96082 -2.09457,20.73186 -1.63899,2.21685 -2.97998,4.36493 -2.97998,4.77352 0,0.4086 -1.20507,2.15918 -2.67793,3.89019 -1.47287,1.73102 -7.13871,8.95019 -12.59077,16.0426 -9.53567,12.40467 -11.51931,13.81342 -16.79529,11.92784 z"
           id="path1347"
           transform="matrix(0.29398148,0,0,0.29398148,-4.4448691,-13.734066)" /><path
           style="fill:#63cdcf;fill-opacity:1;stroke-width:0.464231;stroke-linecap:round;stroke-linejoin:round;paint-order:markers stroke fill"
           d="m 305.16558,753.64327 c -5.41233,-5.41233 -6.28306,-11.93165 -2.55618,-19.13864 4.62037,-8.9348 18.37879,-10.2249 25.00924,-2.34505 6.49157,7.71478 6.26342,15.28707 -0.66947,22.21995 -3.26739,3.2674 -5.20261,4.00363 -10.52366,4.00363 -5.55616,0 -7.22075,-0.70071 -11.25993,-4.73989 z"
           id="path1349"
           transform="matrix(0.29398148,0,0,0.29398148,-4.4448691,-13.734066)" /><g
           id="g1018"
           transform="matrix(0.02599538,0,0,0.02599538,517.37415,-13.734065)"><g
             id="g1094"
             inkscape:label="ring"
             transform="translate(235.65761,235.65767)"
             style="display:inline"><circle
               style="display:none;opacity:1;fill:none;fill-opacity:0.438789;stroke:#000000;stroke-width:18.5428;stroke-linecap:round;stroke-linejoin:round;stroke-dasharray:none;stroke-opacity:1;paint-order:markers stroke fill"
               id="path2361"
               cx="584.20801"
               cy="584.20801"
               r="487.41605"
               inkscape:label="circle outline" /><circle
               style="display:inline;opacity:1;fill:none;fill-opacity:0.438789;stroke:#000000;stroke-width:100;stroke-linecap:round;stroke-linejoin:round;stroke-dasharray:none;stroke-opacity:1;paint-order:markers stroke fill;filter:url(#filter1096)"
               id="circle1015"
               cx="584.20801"
               cy="584.20801"
               r="487.41605"
               inkscape:label="shadow" /><circle
               style="display:inline;opacity:1;mix-blend-mode:normal;fill:none;fill-opacity:1;stroke:url(#linearGradient1072);stroke-width:70;stroke-linecap:round;stroke-linejoin:round;stroke-dasharray:none;stroke-dashoffset:0;stroke-opacity:1;paint-order:markers stroke fill;filter:url(#filter1082)"
               id="circle1019"
               cx="584.20801"
               cy="584.20801"
               r="487.41605"
               inkscape:label="color" /><circle
               style="display:inline;opacity:1;fill:none;fill-opacity:0.438789;stroke:#ffffff;stroke-width:28;stroke-linecap:round;stroke-linejoin:round;stroke-dasharray:none;stroke-opacity:1;paint-order:markers stroke fill;filter:url(#filter1086)"
               id="circle1017"
               cx="584.20801"
               cy="584.20801"
               r="487.41605"
               inkscape:label="white" /><circle
               style="display:inline;opacity:1;fill:#192330;fill-opacity:1;stroke:none;stroke-width:18.543;stroke-linecap:round;stroke-linejoin:round;stroke-dasharray:none;stroke-opacity:1;paint-order:markers stroke fill"
               id="circle10680"
               cx="584.20801"
               cy="584.20801"
               r="487.41605"
               inkscape:label="circle outline" /><circle
               style="display:inline;opacity:1;mix-blend-mode:normal;fill:none;fill-opacity:1;stroke:url(#linearGradient1103);stroke-width:80;stroke-linecap:round;stroke-linejoin:round;stroke-dasharray:none;stroke-dashoffset:0;stroke-opacity:1;paint-order:markers stroke fill;filter:url(#filter1107)"
               id="circle1100"
               cx="584.20807"
               cy="584.20801"
               r="487.41605"
               inkscape:label="color" /></g><g
             inkscape:label="Image"
             id="g630"
             transform="translate(153.26641,99.737182)"
             style="display:inline"><g
               id="g2167"
               style="display:inline"
               inkscape:label="eye"><g
                 id="g2146"
                 transform="translate(1709.5357,484.84566)"
                 style="display:inline;opacity:1;fill:url(#radialGradient11612);fill-opacity:1;stroke:none;stroke-opacity:1"
                 inkscape:label="aperture"><path
                   style="fill:url(#radialGradient1020);fill-opacity:1;stroke:none;stroke-width:1.33333;stroke-opacity:1"
                   d="m -998.76537,187.83568 c -10.63343,-10.7253 -25.39093,-23.97462 -32.79463,-29.44295 -34.217,-25.27269 -73.4188,-43.10525 -114.2013,-51.94916 -7.881,-1.70905 -14.3188,-3.40737 -14.306,-3.77404 0.06,-1.72856 23.2325,-17.829078 33.5398,-23.303868 24.6097,-13.07149 46.9105,-19.07467 75.0954,-20.215 19.3574,-0.78317 36.0828,1.02413 52.95263,5.72191 l 7.6193,2.12176 2.1871,7.50427 c 9.5676,32.827438 13.0823,61.187288 12.3273,99.468918 -0.3186,16.15277 -1.1434,30.26868 -1.8328,31.36868 -0.9989,1.59378 -5.1803,-1.96075 -20.5868,-17.50052 z"
                   id="path2134" /><path
                   style="fill:url(#radialGradient1022);fill-opacity:1;stroke:none;stroke-width:1.33333;stroke-opacity:1"
                   d="m -1216.5465,268.75924 c -0.3871,-1.0088 -1.4261,-8.04168 -2.3089,-15.62862 -5.6486,-48.54536 11.4974,-99.69318 45.7224,-136.39398 l 9.8845,-10.59955 7.9082,1.73544 c 36.721,8.05841 85.7326,30.88211 116.0865,54.05901 l 5.653,4.31635 -14.249,2.96055 c -21.223,4.40956 -49.0455,14.10693 -69.4556,24.20834 -32.8778,16.27198 -58.1537,34.95152 -84.332,62.32359 -9.2814,9.70465 -14.4492,14.21729 -14.9091,13.01887 z"
                   id="path2136" /><path
                   style="fill:url(#radialGradient1024);fill-opacity:1;stroke:none;stroke-width:1.33333;stroke-opacity:1"
                   d="m -985.44337,272.03158 c 1.439,-3.65086 4.4422,-13.40086 6.6736,-21.66666 14.9233,-55.27851 13.8032,-113.48399 -3.2133,-166.983498 -2.5578,-8.04178 -4.4582,-14.81378 -4.2231,-15.04886 0.7676,-0.76763 14.5181,5.09289 26.6602,11.3627 38.7124,19.98983 69.8666,56.705378 83.27573,98.141198 6.54451,20.22339 7.42808,17.0981 -9.52703,33.69804 -25.2151,24.68692 -48.3297,41.08534 -80.9681,57.44218 -10.6334,5.3289 -19.7746,9.68981 -20.3139,9.69089 -0.5393,10e-4 0.1968,-2.98512 1.6359,-6.63599 z"
                   id="path2138" /><path
                   style="fill:url(#radialGradient1026);fill-opacity:1;stroke:none;stroke-width:1.33333;stroke-opacity:1"
                   d="m -944.16217,359.3837 c -31.5965,-9.22172 -63.06143,-23.89492 -90.53973,-42.22198 -8.8159,-5.87983 -16.3117,-11.14835 -16.6575,-11.70782 -0.3457,-0.55948 5.7964,-2.35048 13.6493,-3.98 31.917,-6.62301 72.49343,-23.37265 99.61133,-41.11889 18.5636,-12.14817 37.7005,-28.20999 53.75181,-45.11448 l 14.64297,-15.42128 1.39103,9.09181 c 2.57089,16.8035 2.95019,26.88479 1.56435,41.58028 -3.80026,40.29834 -19.64004,75.35019 -47.79096,105.75652 -5.3458,5.77408 -8.0797,7.73898 -10.7028,7.69227 -1.9377,-0.0345 -10.4516,-2.08491 -18.9198,-4.55643 z"
                   id="path2140" /><path
                   style="fill:url(#radialGradient1028);fill-opacity:1;stroke:none;stroke-width:1.33333;stroke-opacity:1"
                   d="m -1110.3208,398.80717 c -45.7523,-18.05397 -83.8468,-58.51676 -99.5513,-105.74044 -6.5942,-19.82868 -6.9444,-18.21064 6.8632,-31.70633 25.1714,-24.60278 53.6908,-44.77636 84.8901,-60.0481 10.2556,-5.02004 18.8114,-8.96248 19.0129,-8.76097 0.2015,0.20151 -1.6974,6.66661 -4.2198,14.36691 -9.6264,29.38664 -14.1064,58.69925 -14.1064,92.29712 0,31.92108 5.0968,63.80936 14.7752,92.44197 2.0473,6.05671 3.3104,10.99155 2.8069,10.96631 -0.5035,-0.0252 -5.2154,-1.74266 -10.4708,-3.81647 z"
                   id="path2142" /><path
                   style="fill:url(#radialGradient1030);fill-opacity:1;stroke:none;stroke-width:1.33333;stroke-opacity:1"
                   d="m -1061.1257,410.52973 c -15.4053,-1.79132 -33.5083,-6.45389 -34.8452,-8.97465 -2.1502,-4.05444 -9.1734,-33.99628 -11.623,-49.55222 -2.5992,-16.506 -3.5441,-71.92597 -1.4363,-84.24553 l 1.0685,-6.24555 10.6771,11.90835 c 22.6761,25.29104 55.4666,50.32076 85.9634,65.61777 21.41593,10.74211 53.54313,21.73118 77.00933,26.34092 l 7.7868,1.52967 -3.1202,3.3394 c -4.0544,4.33932 -24.8496,18.25417 -34.3594,22.99121 -29.6416,14.76519 -64.88293,21.03927 -97.12103,17.29063 z"
                   id="path2144" /></g><g
                 id="g10629"
                 inkscape:label="eye shape"
                 style="display:inline"><path
                   id="path1764"
                   style="display:inline;fill:none;stroke:#cdcecf;stroke-width:30;stroke-dasharray:none;stroke-opacity:1"
                   inkscape:label="eye lid"
                   d="m 677.98164,495.77454 c -37.54368,-0.22542 -75.46768,6.55086 -113.98828,20.31836 -22.99962,8.2202 -63.62573,28.45698 -86.27735,42.97656 -42.19481,27.1899 -87.68066,67.38245 -127.10351,107.07226 -27.90125,29.73645 -64.31627,74.20968 -72.52149,88.57032 -5.30224,9.27991 -10.41279,25.08462 -11.48047,35.50586 -2.03087,19.82249 6.32361,38.86955 21.6836,49.4375 7.75416,5.335 17.18712,8.57223 36.35742,12.47656 34.27617,6.98086 57.44662,14.74165 104.83398,35.10937 37.93494,16.30495 58.09758,24.23679 77.87891,30.64063 41.52616,13.44334 82.03373,21.66405 126,25.56836 18.5525,1.64749 67.34635,0.54689 87.33398,-1.96875 79.32673,-9.98407 145.40466,-39.56822 217.32618,-97.30078 22.47107,-18.03793 53.27717,-48.24889 60.91406,-59.73633 22.59773,-33.99192 21.29183,-76.68116 -3.33594,-109.00781 -10.28159,-13.49575 -40.99701,-46.04772 -59.80469,-63.38086 -38.18586,-35.19192 -75.09719,-61.20851 -114.43359,-80.65625 -47.47103,-23.46946 -95.11237,-35.33519 -143.38281,-35.625 z m -11.38282,13.46484 A 210.88979,210.88979 0 0 1 877.48945,720.12805 210.88979,210.88979 0 0 1 666.59882,931.01868 210.88979,210.88979 0 0 1 455.71015,720.12805 210.88979,210.88979 0 0 1 666.59882,509.23938 Z" /></g></g></g></g></g><g
         id="g2967"
         inkscape:label="commit"><g
           transform="matrix(0.016256,0,0,-0.016256,15.074435,81.073128)"
           fill="#000000"
           stroke="none"
           id="g14221"
           style="display:inline;fill:#cdcecf;fill-opacity:1"><g
             id="g2318"><path
               d="m 1460,4235 c -117,-33 -214,-114 -272,-229 l -30,-60 22,-90 c 12,-50 26,-108 31,-128 l 10,-38 h 314 c 323,0 340,-2 394,-42 13,-10 27,-18 31,-18 18,0 44,118 43,195 -2,176 -110,332 -272,395 -74,29 -197,35 -271,15 z"
               id="path14205"
               style="fill:#63cdcf;fill-opacity:1" /><path
               d="m 95,3956 c -16,-7 -41,-25 -53,-39 -52,-55 -56,-26 170,-1020 122,-538 219,-940 231,-966 44,-90 172,-140 450,-176 30,-4 47,-11 47,-20 0,-9 14,-15 43,-17 l 42,-3 3,-197 c 2,-180 1,-198 -15,-206 -15,-8 -299,-97 -505,-159 -46,-13 -48,-15 -48,-51 0,-26 -6,-41 -20,-49 -10,-7 -24,-30 -31,-51 -35,-117 127,-192 192,-89 25,40 20,99 -12,133 -17,18 -19,25 -8,29 29,10 438,135 443,135 3,0 6,-30 6,-66 0,-60 -3,-68 -30,-96 -44,-43 -45,-106 -3,-150 34,-36 81,-45 121,-24 69,36 83,111 32,169 -27,31 -30,41 -30,101 0,59 2,67 18,62 29,-8 416,-127 430,-132 10,-3 7,-12 -12,-35 -73,-87 23,-216 122,-165 69,35 83,111 33,169 -17,18 -31,47 -33,66 l -3,33 -277,86 -278,85 v 204 203 h 40 c 27,0 40,4 40,14 0,10 27,17 97,26 123,15 226,41 297,75 58,28 106,75 106,105 0,21 -56,46 -127,56 l -48,6 -213,936 c -133,586 -220,946 -231,961 -9,14 -30,34 -45,45 -27,20 -40,21 -469,23 -353,2 -448,0 -472,-11 z"
               id="path14207"
               style="fill:#181919;fill-opacity:1" /><path
               d="m 2932,3648 c -6,-18 -34,-158 -63,-311 l -53,-279 32,-29 c 22,-21 34,-26 37,-17 2,7 25,123 50,258 26,135 51,266 57,293 l 10,47 h 503 c 277,0 506,-3 508,-7 2,-5 -24,-154 -59,-333 -34,-179 -65,-340 -69,-357 l -6,-33 h -479 -480 v -24 c 0,-12 -11,-44 -25,-70 l -24,-46 h 524 c 489,0 525,1 534,18 13,25 173,870 169,895 l -3,22 -577,3 -576,2 z"
               id="path14209"
               style="fill:#181919;fill-opacity:1" /><path
               d="m 1247,3563 c 9,-37 89,-387 178,-777 l 161,-709 60,-17 c 32,-9 71,-24 85,-33 32,-21 53,-67 47,-102 l -5,-25 h 179 178 l -5,-22 c -3,-13 -34,-189 -70,-393 -74,-412 -74,-425 -13,-499 97,-119 291,-95 352,42 19,44 196,1032 196,1095 0,59 -36,125 -89,162 l -43,30 -251,5 -252,5 -3,335 -2,335 62,-104 c 95,-157 61,-146 436,-146 293,0 319,1 348,19 43,26 64,66 64,121 0,42 -5,52 -39,86 l -39,39 h -264 -265 l -154,268 c -84,147 -170,285 -190,307 l -38,40 -319,3 -320,3 z"
               id="path14211"
               style="fill:#63cdcf;fill-opacity:1" /><path
               d="m 2010,2530 v -150 h 208 c 162,0 219,-3 254,-16 93,-31 163,-120 174,-221 4,-34 -10,-139 -50,-363 -31,-173 -59,-327 -62,-342 l -6,-28 H 3639 4750 V 1140 870 h 60 60 v 770 770 h 50 50 v 85 85 h 76 75 l -3,48 -3,47 -1552,3 -1553,2 z"
               id="path14213"
               style="fill:#646468;fill-opacity:1" /><path
               d="m 1716,1821 c -43,-48 -238,-116 -388,-136 -39,-5 -48,-10 -48,-26 0,-16 -7,-19 -40,-19 h -40 v -115 -115 l 392,2 392,3 38,210 c 20,116 38,211 38,213 0,1 -74,2 -163,2 -148,0 -166,-2 -181,-19 z"
               id="path14215"
               style="fill:#646468;fill-opacity:1" /><path
               d="m 800,1511 c 0,-202 -4,-192 73,-165 38,13 47,20 47,39 0,13 7,25 15,29 12,4 15,27 15,116 v 110 h -40 c -33,0 -40,3 -40,20 0,11 -6,20 -12,20 -7,0 -23,3 -35,6 l -23,6 z"
               id="path14217"
               style="fill:#646468;fill-opacity:1" /><path
               d="m 860,1081 -55,-17 -3,-97 -3,-97 h 57 c 50,0 55,2 49,18 -17,41 -17,113 0,158 9,25 16,47 14,48 -2,2 -29,-4 -59,-13 z"
               id="path14219"
               style="fill:#646468;fill-opacity:1" /></g></g><path
           style="font-style:normal;font-variant:normal;font-weight:normal;font-stretch:normal;font-size:17.6389px;line-height:1.25;font-family:'Bai Jamjuree';-inkscape-font-specification:'Bai Jamjuree';text-align:center;letter-spacing:0px;word-spacing:0px;text-anchor:middle;display:inline;opacity:0.99;mix-blend-mode:normal;fill:url(#radialGradient1091-6);fill-opacity:1;stroke:#00ffff;stroke-width:0.0681825;stroke-miterlimit:4;stroke-dasharray:none;stroke-opacity:0.2"
           d="m 71.438263,22.94308 -2.251823,3.800312 4.801458,2.858081 z m -2.932096,4.948441 -3.454774,5.830474 8.803482,-3.486083 z m 5.919354,2.852944 -2.821395,1.527804 3.961524,1.449726 z"
           id="path4885-0-5"
           inkscape:connector-curvature="0"
           sodipodi:nodetypes="cccccccccccc" /></g><g
         inkscape:groupmode="layer"
         id="layer2-6"
         inkscape:label="text"
         transform="translate(6.9714318,12.038527)"
         style="fill:#919191;fill-opacity:1"><text
           xml:space="preserve"
           style="font-size:16.9333px;line-height:1.25;font-family:'VictorMono Nerd Font';-inkscape-font-specification:'VictorMono Nerd Font';display:inline;fill:#919191;fill-opacity:1;stroke-width:0.264583"
           x="10.5736"
           y="85.593071"
           id="text22750"
           transform="translate(-6.9714319,-12.038527)"><tspan
             sodipodi:role="line"
             id="tspan22748"
             style="font-style:normal;font-variant:normal;font-weight:normal;font-stretch:normal;font-size:16.9333px;font-family:'VictorMono Nerd Font';-inkscape-font-specification:'VictorMono Nerd Font';fill:#919191;fill-opacity:1;stroke-width:0.264583"
             x="10.5736"
             y="85.593071">git commit</tspan></text><text
           xml:space="preserve"
           style="font-size:16.9333px;line-height:1.25;font-family:'VictorMono Nerd Font';-inkscape-font-specification:'VictorMono Nerd Font';display:inline;fill:#919191;fill-opacity:1;stroke-width:0.264583"
           x="19.909996"
           y="181.94829"
           id="text24512"
           transform="translate(-6.9714319,-12.038527)"><tspan
             sodipodi:role="line"
             id="tspan24510"
             style="font-size:16.9333px;fill:#919191;fill-opacity:1;stroke-width:0.264583"
             x="19.909996"
             y="181.94829">git push</tspan></text><text
           xml:space="preserve"
           style="font-size:16.9333px;line-height:1.25;font-family:'VictorMono Nerd Font';-inkscape-font-specification:'VictorMono Nerd Font';display:inline;fill:#919191;fill-opacity:1;stroke-width:0.264583"
           x="5.9554338"
           y="274.97614"
           id="text26364"
           transform="translate(-6.9714319,-12.038527)"><tspan
             sodipodi:role="line"
             id="tspan26362"
             style="font-size:16.9333px;fill:#919191;fill-opacity:1;stroke-width:0.264583"
             x="5.9554338"
             y="274.97614">git <tspan
   style="font-style:oblique;font-variant:normal;font-weight:normal;font-stretch:normal;font-family:'VictorMono Nerd Font';-inkscape-font-specification:'VictorMono Nerd Font Oblique';fill:#9d79d6;fill-opacity:1"
   id="tspan1084">-tf</tspan> out</tspan></text></g></g></g></svg>
