<?xml version="1.0" encoding="UTF-8" standalone="no"?>
<!-- Created with Inkscape (http://www.inkscape.org/) -->

<svg
   width="1920"
   height="1080"
   viewBox="0 0 508 285.75"
   version="1.1"
   id="svg315"
   inkscape:version="1.1.1 (3bf5ae0d25, 2021-09-20)"
   sodipodi:docname="gatonegro.svg"
   xmlns:inkscape="http://www.inkscape.org/namespaces/inkscape"
   xmlns:sodipodi="http://sodipodi.sourceforge.net/DTD/sodipodi-0.dtd"
   xmlns="http://www.w3.org/2000/svg"
   xmlns:svg="http://www.w3.org/2000/svg">
  <sodipodi:namedview
     id="namedview317"
     pagecolor="#0f111b"
     bordercolor="#666666"
     borderopacity="1.0"
     inkscape:pageshadow="2"
     inkscape:pageopacity="1"
     inkscape:pagecheckerboard="false"
     inkscape:document-units="px"
     showgrid="false"
     units="px"
     inkscape:zoom="0.30959063"
     inkscape:cx="515.19647"
     inkscape:cy="592.71819"
     inkscape:window-width="1912"
     inkscape:window-height="1072"
     inkscape:window-x="0"
     inkscape:window-y="0"
     inkscape:window-maximized="0"
     inkscape:current-layer="layer3" />
  <defs
     id="defs312" />
  <g
     inkscape:groupmode="layer"
     id="layer3"
     inkscape:label="base">
    <rect
       style="fill:#0f111b;stroke-width:0.28019;fill-opacity:1"
       id="rect930"
       width="508"
       height="285.75"
       x="1.3322676e-14"
       y="2.7533531e-14" />
  </g>
  <g
     inkscape:groupmode="layer"
     id="layer2"
     inkscape:label="eyes">
    <circle
       style="fill:#e5e873;fill-opacity:1;fill-rule:evenodd;stroke-width:0.264583"
       id="path586"
       cx="342.54263"
       cy="269.03696"
       r="13.943193" />
    <circle
       style="fill:#e5e873;fill-opacity:1;fill-rule:evenodd;stroke-width:0.264583"
       id="path586-3"
       cx="400.19409"
       cy="269.16663"
       r="13.943193" />
    <circle
       style="display:inline;fill:#eef9d5;fill-opacity:1;stroke-width:0.264583"
       id="path1808"
       cx="345.88461"
       cy="266.94672"
       r="5.5965886" />
    <circle
       style="display:inline;fill:#eef9d5;fill-opacity:1;stroke-width:0.264583"
       id="path1808-6"
       cx="399.30515"
       cy="266.77414"
       r="5.5965886" />
  </g>
  <g
     inkscape:label="Layer 1"
     inkscape:groupmode="layer"
     id="layer1"
     style="display:inline">
    <path
       style="fill:#000000;stroke-width:0.264583"
       d="m 247.52924,284.8901 c -0.54622,-0.7658 -0.62163,-1.20731 -0.68924,-4.03489 -0.0418,-1.74625 -0.14413,-4.16774 -0.22751,-5.38109 l -0.1516,-2.20609 1.08741,-1.04488 c 0.59807,-0.57468 1.0874,-1.21299 1.0874,-1.41846 0,-0.20548 0.38696,-0.65754 0.8599,-1.00459 0.90041,-0.66073 3.64925,-2.04177 4.06397,-2.04177 0.1325,0 0.56193,-0.29765 0.95427,-0.66145 0.39234,-0.36381 0.98644,-0.6622 1.32021,-0.66309 0.33378,-8e-4 0.94789,-0.17949 1.36471,-0.39688 0.41682,-0.21738 0.99019,-0.39524 1.27417,-0.39524 0.28397,0 0.7732,-0.13748 1.08717,-0.30552 0.80008,-0.42819 3.89462,-0.75843 8.39019,-0.89539 2.11005,-0.0643 4.18092,-0.17799 4.60194,-0.25269 0.42101,-0.0747 0.93475,0.005 1.14163,0.17635 0.20688,0.17169 1.23163,0.34501 2.27722,0.38515 1.0456,0.0401 2.55593,0.2653 3.35629,0.50035 0.80037,0.23505 2.19834,0.53368 3.1066,0.66362 1.70295,0.24364 2.39083,0.51169 3.47752,1.35507 0.34705,0.26935 0.89903,0.48972 1.22662,0.48972 0.41734,0 0.72346,0.26938 1.02267,0.89992 0.23487,0.49495 0.81399,1.1299 1.28692,1.41098 0.66708,0.39648 1.02611,0.94306 1.60127,2.43769 0.40776,1.05965 0.67984,1.98817 0.60462,2.06339 -0.0752,0.0752 -0.0239,0.34758 0.11396,0.60525 0.13789,0.25766 0.31542,2.4479 0.39449,4.86718 0.12864,3.93577 0.0943,4.4667 -0.32617,5.04467 l -0.46996,0.64596 -21.61167,0.008 -21.61167,0.008 z m 53.03085,-0.40832 c -0.76404,-0.68493 -1.38912,-1.34175 -1.38906,-1.4596 5e-5,-0.11785 0.61467,-0.86409 1.36581,-1.65832 l 1.36572,-1.44405 -1.35744,-0.5735 c -1.06278,-0.44901 -1.29477,-0.64901 -1.06874,-0.92137 0.15879,-0.19132 0.42295,-0.3505 0.58703,-0.35374 0.16409,-0.003 0.59599,-0.23686 0.95979,-0.51916 l 0.66146,-0.51328 -0.85989,-0.17537 c -1.05462,-0.21508 -1.0633,-0.4824 -0.0588,-1.81 0.78269,-1.03443 0.78648,-1.05685 0.80718,-4.7625 0.0199,-3.56766 0.0503,-3.769 0.72761,-4.82012 0.72524,-1.12557 3.83311,-6.17931 4.54326,-7.38786 0.37177,-0.63267 0.35592,-0.70904 -0.25045,-1.20692 -0.38086,-0.31272 -0.53739,-0.60562 -0.38024,-0.71156 2.25494,-1.52017 2.74736,-2.02361 2.74736,-2.80887 0,-0.45063 -0.43913,-2.48428 -0.97585,-4.51921 -0.89434,-3.39083 -0.97873,-4.02036 -1.01031,-7.53635 -0.0277,-3.08198 -0.14221,-4.17467 -0.58242,-5.55625 -1.6413,-5.15114 -2.61952,-9.74237 -3.41054,-16.00729 -1.15282,-9.13028 0.0877,-16.55662 3.35833,-20.10485 1.6184,-1.75577 2.36693,-2.08068 4.41468,-1.91631 2.96737,0.23819 9.2256,3.71877 16.30132,9.06616 1.14836,0.86786 2.81523,2.09986 3.70417,2.73779 0.88893,0.63794 2.15203,1.60083 2.80687,2.13976 0.65485,0.53894 2.44078,1.92893 3.96875,3.08888 5.25026,3.9857 5.46433,4.0727 6.61879,2.68984 0.77177,-0.92446 0.76742,-0.92478 3.43538,0.25765 1.23776,0.54858 2.96934,0.68176 4.87432,0.37491 1.44014,-0.23198 1.78181,-0.18009 4.21918,0.64073 1.45867,0.49123 2.74781,0.89315 2.86473,0.89315 0.11693,0 0.2126,-0.25301 0.2126,-0.56224 0,-0.49278 0.10624,-0.54125 0.8599,-0.39237 0.47294,0.0934 1.4552,0.41241 2.18281,0.70885 l 1.32292,0.53899 2.88412,-0.92179 2.88412,-0.9218 1.99789,0.79364 c 1.97494,0.78453 2.03755,0.79157 5.45025,0.61272 2.36499,-0.12395 3.81589,-0.0824 4.60656,0.13203 1.05863,0.28704 1.20552,0.26473 1.77415,-0.26946 0.58053,-0.54538 0.7735,-0.57041 3.03449,-0.39353 2.09187,0.16364 2.48245,0.12743 2.92268,-0.27098 0.38328,-0.34686 1.04442,-0.47315 2.69048,-0.51394 1.63394,-0.0405 3.16033,-0.32927 6.07425,-1.14918 4.3311,-1.21868 4.65825,-1.26553 4.87594,-0.69823 0.27179,0.70826 0.80375,0.42452 1.92229,-1.02532 1.02236,-1.32516 1.18761,-1.43087 2.4221,-1.54949 1.91453,-0.18396 3.22025,-1.20575 9.77421,-7.6488 6.56815,-6.457 9.17572,-8.71128 12.20403,-10.55059 1.89144,-1.14882 2.35386,-1.31851 3.5929,-1.31851 2.75348,0 4.59321,1.59643 6.55549,5.68854 0.98306,2.05008 1.49793,3.67143 2.14252,6.74688 0.51333,2.44923 0.72541,7.92768 0.43804,11.31572 -0.31874,3.75784 -1.41626,8.77909 -2.38964,10.93276 -0.29012,0.64193 -0.84991,2.35777 -1.24398,3.81297 -1.29686,4.78908 -1.27084,4.42905 -0.49902,6.90456 l 0.70072,2.24744 -0.60421,0.64316 -0.60422,0.64316 0.61923,1.16725 c 0.60093,1.13276 0.6054,1.18834 0.15148,1.88111 -0.40524,0.61847 -0.42708,0.88337 -0.16345,1.98231 0.22648,0.94408 0.22836,1.55047 0.007,2.37126 -0.22155,0.8228 -0.21745,1.78818 0.0162,3.80212 0.29086,2.50731 0.42295,2.90631 1.85712,5.60972 1.63194,3.0762 2.12933,3.83958 3.77609,5.79548 0.86841,1.03144 0.97217,1.27944 0.68174,1.62939 -0.26797,0.32289 -0.27904,0.68295 -0.0508,1.65333 0.16047,0.6823 0.4905,2.09931 0.73341,3.14892 0.4246,1.83477 0.4891,1.93576 1.67232,2.61841 0.67687,0.39052 1.26344,0.73529 1.30348,0.76615 0.04,0.0309 -0.16833,0.61863 -0.46303,1.30614 -0.73015,1.70337 -0.68549,2.00653 0.43403,2.94645 1.04004,0.87319 1.02294,1.29369 -0.0695,1.70904 -0.50411,0.19166 -0.63576,0.43343 -0.63576,1.16751 0,0.76106 0.14124,0.99883 0.79375,1.33626 0.87997,0.45505 0.97993,0.77766 0.41578,1.34181 -0.32582,0.32582 -10.48566,0.3764 -73.62032,0.36653 l -73.24231,-0.0115 z m 47.121,-4.8598 c 3.63713,-1.09849 5.74382,-3.06544 6.87681,-6.42067 0.57511,-1.70311 0.55792,-3.69502 -0.0487,-5.64409 -0.49409,-1.58753 -1.96987,-4.03222 -2.43412,-4.03222 -0.31617,0 -0.3306,0.86714 -0.02,1.20385 0.12751,0.13825 0.49819,1.06639 0.82372,2.06255 1.382,4.22893 -0.24557,7.95905 -4.40477,10.09506 -1.42905,0.7339 -1.75504,0.79362 -4.3237,0.79207 -2.63183,-0.002 -2.8687,-0.0484 -4.49792,-0.88876 -3.27726,-1.69046 -4.77572,-3.98754 -4.97371,-7.62452 -0.12683,-2.32969 0.2758,-3.61624 1.74384,-5.57222 0.8226,-1.09601 3.49807,-2.88778 4.85941,-3.25435 1.2838,-0.34569 1.20881,-0.92611 -0.11452,-0.88642 -1.38668,0.0416 -4.20357,1.5075 -5.66363,2.94734 -2.00477,1.97702 -2.77631,3.66003 -2.92713,6.38521 -0.10972,1.9825 -0.0354,2.53927 0.56842,4.25687 0.90141,2.56418 1.70262,3.6852 3.57011,4.99517 2.88841,2.02611 7.36384,2.67303 10.96593,1.58513 z m 55.6283,0.0371 c 1.97431,-0.67548 4.0906,-2.11738 4.96399,-3.38214 3.75621,-5.43937 2.05793,-13.70132 -3.374,-16.41415 -1.27539,-0.63697 -3.63662,-1.0858 -5.76027,-1.09495 -1.48096,-0.006 -2.07216,0.1889 -2.07216,0.68445 0,0.27661 0.42214,0.36856 1.69192,0.36856 4.82771,0 8.31805,2.77182 9.55111,7.58493 0.7108,2.77453 -0.26472,5.79949 -2.63385,8.1672 -2.07392,2.07266 -2.88173,2.36129 -6.6248,2.36699 -2.83934,0.004 -3.31413,-0.0636 -4.49102,-0.64275 -1.76789,-0.86996 -3.47012,-2.62725 -4.32004,-4.45979 -0.57244,-1.23424 -0.69878,-1.89055 -0.69763,-3.62387 10e-4,-1.97546 0.55654,-4.26099 1.21804,-5.01385 0.29723,-0.33828 0.28066,-0.93927 -0.0259,-0.93927 -0.13571,0 -0.32233,0.23812 -0.4147,0.52916 -0.0924,0.29105 -0.33626,0.52917 -0.54196,0.52917 -0.2057,0 -0.45222,0.32742 -0.54782,0.7276 -0.0956,0.40019 -0.27748,0.8601 -0.40419,1.02204 -0.1267,0.16194 -0.35075,0.94564 -0.49789,1.74157 -0.65208,3.52741 0.98992,8.04213 3.7025,10.1801 0.80539,0.63479 1.94061,1.27558 2.52269,1.42397 0.58208,0.1484 1.29646,0.37648 1.5875,0.50686 1.05419,0.47223 5.49729,0.30995 7.16847,-0.26183 z m -53.95214,-12.92834 c 0.0883,-0.33763 0.2937,-0.45571 0.63669,-0.36602 0.3387,0.0886 0.50635,-0.004 0.50635,-0.2797 0,-0.55451 -0.50691,-0.83602 -0.86343,-0.47951 -0.20781,0.20781 -0.3858,0.2071 -0.6384,-0.003 -0.48267,-0.40057 -1.144,0.17586 -1.144,0.99713 0,0.50067 0.14006,0.62907 0.68622,0.62907 0.44961,0 0.73118,-0.17187 0.81657,-0.49843 z m 54.03242,-0.45366 c 1.04283,-0.52023 0.94125,-0.98422 -0.25833,-1.17996 -1.09629,-0.17889 -1.83105,0.13184 -1.83105,0.77434 0,0.9439 0.72733,1.0851 2.08938,0.40562 z m -57.30914,-0.17239 c 0.24413,-0.1819 0.51638,-0.7001 0.60499,-1.15156 0.13385,-0.6819 0.0389,-0.91699 -0.56128,-1.38906 -0.39732,-0.31253 -0.92841,-0.56824 -1.1802,-0.56824 -0.74951,0 -1.85208,1.03526 -1.85208,1.739 0,1.34829 1.86821,2.20462 2.98857,1.36986 z m 53.62295,-0.71021 c 0.72767,-1.35967 0.0366,-2.66323 -1.41188,-2.66323 -1.0817,0 -1.48923,0.4086 -1.48923,1.49312 0,1.46791 2.25498,2.37741 2.90111,1.17011 z m 57.71866,19.79769 c -0.58867,-0.54843 -0.5963,-0.63366 -0.45296,-5.05865 0.0802,-2.47545 0.26661,-4.6464 0.41428,-4.82433 0.14767,-0.17792 0.19812,-0.39387 0.11212,-0.47987 -0.46156,-0.46156 1.3136,-4.37351 2.12452,-4.68182 0.34642,-0.13171 0.90169,-0.72315 1.23395,-1.31432 0.42538,-0.75686 0.77936,-1.07485 1.19653,-1.07485 0.32584,0 0.929,-0.27863 1.34034,-0.61917 0.94448,-0.78192 2.25353,-1.23291 3.57865,-1.23291 0.5676,0 1.3535,-0.16247 1.74646,-0.36104 0.90384,-0.45674 4.91961,-1.08007 5.50676,-0.85476 0.2429,0.0932 0.72795,-0.0181 1.07788,-0.24741 0.35749,-0.23423 0.86422,-0.34452 1.1566,-0.25172 0.2862,0.0908 2.3346,0.20082 4.552,0.24441 4.19176,0.0824 7.78258,0.47078 8.65135,0.93573 0.27768,0.14862 0.75245,0.27021 1.05503,0.27021 0.30258,0 0.7569,0.11255 1.00958,0.25013 0.25269,0.13757 0.89395,0.31931 1.42504,0.40387 0.53107,0.0846 1.10964,0.32731 1.28569,0.53945 0.17606,0.21213 1.43514,0.92091 2.79797,1.57507 1.97893,0.94988 2.60721,1.39426 3.12023,2.20694 0.3533,0.55966 1.02751,1.40272 1.49825,1.87346 l 0.85589,0.85589 -0.1859,2.29915 c -0.10225,1.26454 -0.16903,3.4466 -0.14841,4.84903 0.0308,2.09644 -0.066,2.79041 -0.54443,3.9026 L 501.24762,285.75 H 479.63426 458.0209 Z"
       id="path429" />
  </g>
</svg>
